labs/lab1/data/Dynamic/case3.csv

#Digilent WaveForms Oscilloscope Acquisition
#Device Name: Discovery3
#Serial Number: SN:210415BC9AD6
#Date Time: 2025-02-14 19:42:19.545.122.770
#Sample rate: 1000Hz
#Samples: 15000
#Trigger: None
#Potentiometer: Range: 10 mV/div Offset: -30 mV Sample Mode: Average
#MovingAverage: Input: C1 Filter: Chebyshev Low-pass 2  Freq1: 1 Hz Epsilon: 0.01 


Time (s),Potentiometer (V),MovingAverage (V)
0,0.01688525924811795,8.076155307165922e-06
0.001000000000000334,0.01847517139877555,4.063640183016855e-05
0.00199999999999978,0.01895214504397282,0.0001059600259483244
0.003000000000000114,0.01855466700630842,0.0002029633663669311
0.003999999999999559,0.01783920653851251,0.0003290469157965104
0.004999999999999893,0.01720324167824947,0.0004810286405071031
0.006000000000000227,0.01704425046318371,0.0006560218602601289
0.006999999999999673,0.01664677242551931,0.0008516510091811119
0.008000000000000007,0.01648778121045355,0.001065759052966357
0.009000000000000341,0.01609030317278915,0.001296284306712862
0.009999999999999787,0.01577232074265764,0.001541182556943746
0.01100000000000012,0.01561332952759188,0.001798543981427832
0.01199999999999957,0.01426190419953292,0.002066170412900956
0.0129999999999999,0.01386442616186852,0.002341368882257572
0.01400000000000023,0.01457988662966444,0.002622469628721473
0.01499999999999968,0.01577232074265764,0.002909641809907977
0.01600000000000001,0.01640828560292067,0.00320375514352143
0.01700000000000035,0.01728273728578235,0.00350542325443266
0.01799999999999979,0.01911113625903858,0.003815626377644531
0.01900000000000013,0.01887264943643994,0.00413530704375118
0.01999999999999957,0.01831618018370978,0.004463659550188365
0.02099999999999991,0.01752122410838099,0.004798503593448819
0.02200000000000024,0.01720324167824947,0.0051376264748052
0.02299999999999969,0.01688525924811795,0.005479283588609216
0.02400000000000002,0.01664677242551931,0.005822097351387909
0.02500000000000036,0.01632878999538779,0.006164809463290755
0.0259999999999998,0.0159313119577234,0.006506162020281834
0.02700000000000014,0.01577232074265764,0.00684497594177254
0.02799999999999958,0.01529534709746036,0.007180186472702172
0.02899999999999991,0.01346694812420413,0.007509963776921153
0.03000000000000025,0.01418240859200004,0.007832371157140985
0.03099999999999969,0.01481837345226308,0.008147352402828465
0.03200000000000003,0.01601080756525627,0.008456275748319465
0.03300000000000036,0.01648778121045355,0.008760590200537492
0.03399999999999981,0.01783920653851251,0.009061665782464024
0.03500000000000014,0.0190316406515057,0.009361213944819133
0.03599999999999959,0.01879315382890706,0.009660427109055481
0.03699999999999992,0.01783920653851251,0.009958639028223963
0.03800000000000026,0.01728273728578235,0.01025404704617661
0.0389999999999997,0.01712374607071659,0.01054519123738958
0.04000000000000004,0.01672626803305219,0.01083116456725392
0.04100000000000037,0.01656727681798643,0.01111120090079449
0.04199999999999982,0.01624929438785491,0.01138462990829219
0.04300000000000015,0.01577232074265764,0.01165072045274051
0.04399999999999959,0.01577232074265764,0.0119087997406518
0.04499999999999993,0.01481837345226308,0.01215817502910182
0.04600000000000026,0.01338745251667125,0.01239729966613892
0.04699999999999971,0.01426190419953292,0.01262493044322914
0.04800000000000004,0.01537484270499324,0.01284201270916291
0.04900000000000038,0.01609030317278915,0.01305059538533087
0.04999999999999982,0.01696475485565083,0.01325242938934191
0.05100000000000016,0.01839567579124266,0.01344940058937307
0.0519999999999996,0.01887264943643994,0.01364344197380046
0.05299999999999994,0.01831618018370978,0.01383523433442551
0.05400000000000027,0.01775971093097962,0.01402397666075019
0.05499999999999972,0.01720324167824947,0.01420842802297794
0.05600000000000005,0.01704425046318371,0.01438762100705386
0.05700000000000038,0.01672626803305219,0.0145609610593529
0.05799999999999983,0.01648778121045355,0.01472797689620434
0.05900000000000016,0.01616979878032204,0.01488819986875094
0.05999999999999961,0.01577232074265764,0.01504112667750325
0.06099999999999994,0.015533833920059,0.01518626045738196
0.06200000000000028,0.01418240859200004,0.0153227311140007
0.06299999999999972,0.01378493055433564,0.01544920553675412
0.06400000000000006,0.01457988662966444,0.01556540108115969
0.06500000000000039,0.01569282513512476,0.01567282092840754
0.06599999999999984,0.01632878999538779,0.01577354034693703
0.06700000000000017,0.01728273728578235,0.01586936958506314
0.06799999999999962,0.01911113625903858,0.0159625128478586
0.06899999999999995,0.01871365822137418,0.0160549698715219
0.07000000000000028,0.01815718896864402,0.01614683347692897
0.07099999999999973,0.01744172850084811,0.01623689923269045
0.07200000000000006,0.01712374607071659,0.01632400110684261
0.0730000000000004,0.01688525924811795,0.01640739159546298
0.07399999999999984,0.01664677242551931,0.01648664174740682
0.07500000000000018,0.01640828560292067,0.0165613945477401
0.07599999999999962,0.01601080756525627,0.01663124717451998
0.07699999999999996,0.01577232074265764,0.01669575454516526
0.07800000000000029,0.01529534709746036,0.01675447075123904
0.07899999999999974,0.01346694812420413,0.01680618951270157
0.08000000000000007,0.01418240859200004,0.01684960091945297
0.08100000000000041,0.01481837345226308,0.01688523936177481
0.08199999999999985,0.01616979878032204,0.0169151045960528
0.08300000000000018,0.01656727681798643,0.01694127636216234
0.08399999999999963,0.01799819775357827,0.01696563940064432
0.08499999999999996,0.01911113625903858,0.01699034793194406
0.0860000000000003,0.01879315382890706,0.01701693068946867
0.08699999999999974,0.01791870214604539,0.01704503313265718
0.08800000000000008,0.01736223289331523,0.01707325466810767
0.08900000000000041,0.01728273728578235,0.01710054550013713
0.08999999999999986,0.01680576364058507,0.01712633947266233
0.09100000000000019,0.01664677242551931,0.01715010759953399
0.09199999999999964,0.01632878999538779,0.01717139484678386
0.09299999999999997,0.01577232074265764,0.01718966443233937
0.09400000000000031,0.01585181635019051,0.01720441787387545
0.09499999999999975,0.01489786905979596,0.01721519362179185
0.09600000000000009,0.01338745251667125,0.01722061514319009
0.09700000000000042,0.0143413998070658,0.01721955164960633
0.09799999999999986,0.01545433831252612,0.01721312055941645
0.0990000000000002,0.01624929438785491,0.01720356054700695
0.09999999999999964,0.01704425046318371,0.01719275248692876
0.101,0.01855466700630842,0.0171826557829231
0.1020000000000003,0.01895214504397282,0.01717526183813812
0.1029999999999998,0.01847517139877555,0.01717129554283006
0.1040000000000001,0.01791870214604539,0.01717002447420478
0.1050000000000004,0.01728273728578235,0.01717022311938022
0.1059999999999999,0.01712374607071659,0.01717085148034753
0.1070000000000002,0.01672626803305219,0.01717123593480705
0.1079999999999997,0.01656727681798643,0.01717085821235949
0.109,0.01609030317278915,0.01716919488282319
0.1100000000000003,0.01577232074265764,0.01716564262546424
0.1109999999999998,0.015533833920059,0.01715967631404465
0.1120000000000001,0.01418240859200004,0.01715042703645358
0.1130000000000004,0.01378493055433564,0.01713651447652534
0.1139999999999999,0.01457988662966444,0.01711760144118894
0.1150000000000002,0.01577232074265764,0.01709516779177965
0.1159999999999997,0.01632878999538779,0.01707125683549235
0.117,0.01736223289331523,0.01704760078033375
0.1180000000000003,0.01911113625903858,0.01702632067590847
0.1189999999999998,0.01879315382890706,0.01700932845683809
0.1200000000000001,0.01815718896864402,0.01699662494583108
0.1210000000000004,0.01744172850084811,0.0169868719246024
0.1219999999999999,0.01720324167824947,0.0169788066186028
0.1230000000000002,0.01696475485565083,0.0169716577884905
0.1239999999999997,0.01656727681798643,0.0169648512642032
0.125,0.01640828560292067,0.01695780898993073
0.1260000000000003,0.0159313119577234,0.0169499883880003
0.1269999999999998,0.01577232074265764,0.01694084322474805
0.1280000000000001,0.01529534709746036,0.01692986289959759
0.1289999999999996,0.01346694812420413,0.01691577279142377
0.1299999999999999,0.01418240859200004,0.0168971533295107
0.1310000000000002,0.01481837345226308,0.01687442865999369
0.1319999999999997,0.01609030317278915,0.01684944993542183
0.133,0.01656727681798643,0.01682415056330272
0.1340000000000003,0.01791870214604539,0.01680030938806116
0.1349999999999998,0.0190316406515057,0.01677993687777332
0.1360000000000001,0.01879315382890706,0.0167644587710424
0.1369999999999996,0.01791870214604539,0.01675349403988367
0.1379999999999999,0.01728273728578235,0.01674553543580513
0.1390000000000002,0.01712374607071659,0.0167393133797122
0.1399999999999997,0.01672626803305219,0.01673408816905288
0.141,0.01648778121045355,0.01672923906093103
0.1420000000000003,0.01624929438785491,0.01672422022899779
0.1429999999999998,0.01577232074265764,0.01671848122333574
0.1440000000000001,0.01577232074265764,0.01671150632623425
0.1449999999999996,0.01481837345226308,0.0167026993669761
0.1459999999999999,0.01338745251667125,0.01669059126611563
0.1470000000000002,0.0143413998070658,0.01667403641323268
0.1479999999999997,0.01545433831252612,0.01665409638066229
0.149,0.01609030317278915,0.01663283952046054
0.1500000000000004,0.01696475485565083,0.01661194521597554
0.1509999999999998,0.01847517139877555,0.01659329457483652
0.1520000000000001,0.01879315382890706,0.01657880251667044
0.1529999999999996,0.01839567579124266,0.01656908127485757
0.1539999999999999,0.01775971093097962,0.01656332804872213
0.1550000000000002,0.01712374607071659,0.0165602107543734
0.1559999999999997,0.01704425046318371,0.01655862507157016
0.157,0.01664677242551931,0.01655791089002078
0.1580000000000004,0.01648778121045355,0.01655752247604409
0.1589999999999998,0.01601080756525627,0.01655687049631432
0.1600000000000001,0.01577232074265764,0.01655532578732564
0.1609999999999996,0.01545433831252612,0.01655233703999433
0.1619999999999999,0.01410291298446716,0.01654693284509792
0.1630000000000003,0.01378493055433564,0.01653767296277479
0.1639999999999997,0.01450039102213156,0.01652420038460389
0.165,0.01577232074265764,0.01650793682758427
0.1660000000000004,0.01632878999538779,0.01649090760425955
0.1669999999999998,0.01728273728578235,0.01647478863434963
0.1680000000000001,0.01911113625903858,0.01646160881362102
0.1689999999999996,0.01871365822137418,0.01645323045177577
0.1699999999999999,0.01815718896864402,0.01644960677099659
0.1710000000000003,0.01744172850084811,0.01644939196771905
0.1719999999999997,0.01704425046318371,0.01645123921982374
0.173,0.01688525924811795,0.01645422157211923
0.1740000000000004,0.01656727681798643,0.01645777024573668
0.1749999999999998,0.01632878999538779,0.01646134984322442
0.1760000000000002,0.01585181635019051,0.01646434328283795
0.1769999999999996,0.01577232074265764,0.01646617199616098
0.1779999999999999,0.01529534709746036,0.01646637074626175
0.1790000000000003,0.01346694812420413,0.01646366911181675
0.1799999999999997,0.01418240859200004,0.01645661304434135
0.181,0.01489786905979596,0.01644563198914451
0.1820000000000004,0.01601080756525627,0.01643254370958938
0.1829999999999998,0.01648778121045355,0.01641913589893432
0.1840000000000002,0.01791870214604539,0.01640712655961443
0.1849999999999996,0.0190316406515057,0.01639858318602683
0.1859999999999999,0.01871365822137418,0.01639490904787703
0.1870000000000003,0.01791870214604539,0.01639566403548413
0.1879999999999997,0.01728273728578235,0.01639936160478113
0.1890000000000001,0.01720324167824947,0.01640478977054837
0.1900000000000004,0.01672626803305219,0.01641122492316885
0.1909999999999998,0.01656727681798643,0.01641802339568576
0.1920000000000002,0.01624929438785491,0.01642461785122135
0.1929999999999996,0.01577232074265764,0.01643039967591759
0.194,0.01577232074265764,0.0164347986894425
0.1950000000000003,0.01481837345226308,0.01643720586214571
0.1959999999999997,0.01338745251667125,0.01643614034053218
0.1970000000000001,0.01426190419953292,0.01643040775935823
0.1980000000000004,0.01545433831252612,0.01642102431192624
0.1989999999999998,0.01609030317278915,0.01641009227421232
0.2000000000000002,0.01696475485565083,0.01639932334130391
0.2009999999999996,0.01855466700630842,0.01639062935625704
0.202,0.01879315382890706,0.01638595443452351
0.2030000000000003,0.01831618018370978,0.01638582443579763
0.2039999999999997,0.01775971093097962,0.01638935585169712
0.2050000000000001,0.01712374607071659,0.01639525543503323
0.2060000000000004,0.01704425046318371,0.01640245586127921
0.2069999999999999,0.01664677242551931,0.01641029419319429
0.2080000000000002,0.01648778121045355,0.01641822248837996
0.2089999999999996,0.01609030317278915,0.01642568781223618
0.21,0.01585181635019051,0.01643213359838096
0.2110000000000003,0.015533833920059,0.01643703895603139
0.2119999999999997,0.01418240859200004,0.01643942321305442
0.2130000000000001,0.01386442616186852,0.01643783763010454
0.2140000000000004,0.01465938223719732,0.01643195545515261
0.2149999999999999,0.01577232074265764,0.01642318896628454
0.2160000000000002,0.01632878999538779,0.01641344072031385
0.2169999999999996,0.01736223289331523,0.01640434777790523
0.218,0.01911113625903858,0.01639797906310459
0.2190000000000003,0.01879315382890706,0.01639619687715271
0.2199999999999998,0.0182366845761769,0.01639899286795204
0.2210000000000001,0.01744172850084811,0.01640501964452079
0.2220000000000004,0.01720324167824947,0.01641292923425056
0.2229999999999999,0.01688525924811795,0.01642183196656194
0.2240000000000002,0.01664677242551931,0.01643111831466157
0.2249999999999996,0.01632878999538779,0.01644021495184583
0.226,0.0159313119577234,0.0164485076100106
0.2270000000000003,0.01577232074265764,0.01645542078064141
0.2279999999999998,0.01529534709746036,0.01646045448974628
0.2290000000000001,0.01338745251667125,0.01646226813873436
0.2300000000000004,0.01418240859200004,0.01645938038829559
0.2309999999999999,0.01489786905979596,0.01645227175532885
0.2320000000000002,0.01601080756525627,0.01644280854625261
0.2329999999999997,0.01648778121045355,0.01643278650673811
0.234,0.01791870214604539,0.01642393166154711
0.2350000000000003,0.0190316406515057,0.01641831948379115
0.2359999999999998,0.01871365822137418,0.01641736116565517
0.2370000000000001,0.01791870214604539,0.01642062445195224
0.2380000000000004,0.01728273728578235,0.01642663057421566
0.2389999999999999,0.01712374607071659,0.01643413721138907
0.2400000000000002,0.01664677242551931,0.01644235467397152
0.2409999999999997,0.01656727681798643,0.01645065383074231
0.242,0.01624929438785491,0.01645855758349497
0.2430000000000003,0.01577232074265764,0.01646550443279344
0.2439999999999998,0.01577232074265764,0.01647093071143353
0.2450000000000001,0.0147388778447302,0.01647419574935778
0.2460000000000004,0.01338745251667125,0.01647378929401247
0.2469999999999999,0.0143413998070658,0.01646860381021928
0.2480000000000002,0.015533833920059,0.0164597752965845
0.2489999999999997,0.01616979878032204,0.01644944251494232
0.25,0.01696475485565083,0.01643927530569628
0.2510000000000003,0.01855466700630842,0.01643110816621978
0.2519999999999998,0.01887264943643994,0.01642688874117206
0.2530000000000001,0.01839567579124266,0.01642722238700796
0.2539999999999996,0.01775971093097962,0.01643122421454553
0.2549999999999999,0.01720324167824947,0.01643756164407124
0.2560000000000002,0.01704425046318371,0.0164451684866273
0.2569999999999997,0.01664677242551931,0.0164533449094198
0.258,0.01640828560292067,0.01646147041844855
0.2590000000000003,0.01601080756525627,0.01646892419328703
0.2599999999999998,0.01569282513512476,0.01647508629466564
0.2610000000000001,0.01545433831252612,0.01647941484208978
0.2619999999999996,0.01418240859200004,0.01648102407375052
0.2629999999999999,0.01378493055433564,0.01647855478881102
0.2640000000000002,0.01457988662966444,0.0164716504887857
0.2649999999999997,0.01577232074265764,0.01646173379506883
0.266,0.01624929438785491,0.01645075524853262
0.2670000000000003,0.01736223289331523,0.0164403591171226
0.2679999999999998,0.01911113625903858,0.01643265925734586
0.2690000000000001,0.01871365822137418,0.01642952221127895
0.2699999999999996,0.0182366845761769,0.01643090563361504
0.2709999999999999,0.01744172850084811,0.01643550635527521
0.2720000000000002,0.01712374607071659,0.01644197994930029
0.2729999999999997,0.01688525924811795,0.01644940207248541
0.274,0.01656727681798643,0.01645716873419178
0.2750000000000004,0.01632878999538779,0.01646471188317482
0.2759999999999998,0.01585181635019051,0.01647142227179726
0.2770000000000001,0.01577232074265764,0.01647672916286492
0.2779999999999996,0.01521585148992748,0.01648013711052759
0.2789999999999999,0.01338745251667125,0.01648030980722937
0.2800000000000002,0.01418240859200004,0.01647580799619266
0.2809999999999997,0.01481837345226308,0.01646711365297487
0.282,0.01601080756525627,0.01645605637757708
0.2830000000000004,0.01656727681798643,0.01644451151679324
0.2839999999999998,0.01791870214604539,0.01643427973679498
0.2850000000000001,0.0190316406515057,0.01642739228277233
0.2859999999999996,0.0186341626138413,0.01642518058201534
0.2869999999999999,0.01775971093097962,0.01642709938343147
0.2880000000000003,0.01712374607071659,0.01643156394389831
0.2889999999999997,0.01704425046318371,0.01643734683360358
0.29,0.01656727681798643,0.01644374874542687
0.2910000000000004,0.01648778121045355,0.01645018760703919
0.2919999999999998,0.01616979878032204,0.016456192590771
0.2930000000000001,0.01561332952759188,0.01646117013892672
0.2939999999999996,0.01561332952759188,0.01646448858110208
0.2949999999999999,0.01465938223719732,0.01646551967461934
0.2960000000000003,0.01338745251667125,0.01646287914989245
0.2969999999999997,0.01426190419953292,0.0164555397986109
0.298,0.01545433831252612,0.01644459885808212
0.2990000000000004,0.01616979878032204,0.01643219662072763
0.2999999999999998,0.01696475485565083,0.01642008032747076
0.3010000000000002,0.0186341626138413,0.01641015695584352
0.3019999999999996,0.01879315382890706,0.01640436582488148
0.3029999999999999,0.01831618018370978,0.01640319004951289
0.3040000000000003,0.01775971093097962,0.01640570583193568
0.3049999999999997,0.01720324167824947,0.01641065806408547
0.306,0.01704425046318371,0.01641701511889035
0.3070000000000004,0.01664677242551931,0.01642407134965394
0.3079999999999998,0.01648778121045355,0.01643123857525877
0.3090000000000002,0.01609030317278915,0.01643796404284398
0.3099999999999996,0.01577232074265764,0.01644365329372048
0.3109999999999999,0.01545433831252612,0.01644771185033351
0.3120000000000003,0.01418240859200004,0.01644916613033933
0.3129999999999997,0.01386442616186852,0.01644665025861126
0.3140000000000001,0.01465938223719732,0.01643987730436142
0.3150000000000004,0.01577232074265764,0.01643025885592374
0.3159999999999998,0.01632878999538779,0.01641969674788202
0.3170000000000002,0.01736223289331523,0.01640982728954328
0.3179999999999996,0.01911113625903858,0.01640271862767033
0.319,0.01871365822137418,0.01640019424090671
0.3200000000000003,0.01815718896864402,0.01640217128886398
0.3209999999999997,0.01736223289331523,0.0164072705751362
0.3220000000000001,0.01712374607071659,0.01641415247905755
0.3230000000000004,0.01688525924811795,0.01642197339005724
0.3239999999999998,0.01656727681798643,0.01643016715393749
0.3250000000000002,0.01632878999538779,0.01643816318658918
0.3259999999999996,0.0159313119577234,0.01644538783410814
0.327,0.01577232074265764,0.01645130367881597
0.3280000000000003,0.01537484270499324,0.01645544639421668
0.3289999999999997,0.01346694812420413,0.01645654668817188
0.3300000000000001,0.01426190419953292,0.01645315184471595
0.3310000000000004,0.01489786905979596,0.01644569283014024
0.3319999999999999,0.01609030317278915,0.01643598910292386
0.3330000000000002,0.01656727681798643,0.01642586823422666
0.3339999999999996,0.01799819775357827,0.01641708587475436
0.335,0.0190316406515057,0.016411668955722
0.3360000000000003,0.01879315382890706,0.01641098283389735
