labs/lab1/data/Dynamic/case1.csv

#Digilent WaveForms Oscilloscope Acquisition
#Device Name: Discovery3
#Serial Number: SN:210415BC9AD6
#Date Time: 2025-02-14 19:39:46.226.701.870
#Sample rate: 1000Hz
#Samples: 15000
#Trigger: None
#Potentiometer: Range: 10 mV/div Offset: -30 mV Sample Mode: Average
#MovingAverage: Input: C1 Filter: Chebyshev Low-pass 2  Freq1: 1 Hz Epsilon: 0.01 


Time (s),Potentiometer (V),MovingAverage (V)
0,0.03437429290535148,1.644109361889562e-05
0.001000000000000334,0.03405631047521996,8.102567979682013e-05
0.00199999999999978,0.0334998412224898,0.0002065837096046949
0.003000000000000114,0.0334998412224898,0.0003884958876381652
0.003999999999999559,0.03254589393209524,0.0006222769792806022
0.004999999999999893,0.03095598178143765,0.0009026637301252282
0.006000000000000227,0.0319099290718322,0.001224774730842321
0.006999999999999673,0.0331023631848254,0.001586187853498644
0.008000000000000007,0.0338973192601542,0.001985807282887188
0.009000000000000341,0.034692275335483,0.002422264347816941
0.009999999999999787,0.03620269187860771,0.002894354920289403
0.01100000000000012,0.03667966552380499,0.003401069771345127
0.01199999999999957,0.03620269187860771,0.00394029192897174
0.0129999999999999,0.03564622262587755,0.004508525649730613
0.01400000000000023,0.03501025776561451,0.005101861169525506
0.01499999999999968,0.03485126655054875,0.005716691675552609
0.01600000000000001,0.03453328412041724,0.006349929984602836
0.01700000000000035,0.0342947972978186,0.006998754828261611
0.01799999999999979,0.0338973192601542,0.007660410025541962
0.01900000000000013,0.0334998412224898,0.008332167789835853
0.01999999999999957,0.03326135439989116,0.009011446294728529
0.02099999999999991,0.03183043346429933,0.009695387522436117
0.02200000000000024,0.03143295542663493,0.01038072737792323
0.02299999999999969,0.03222791150196373,0.01106538546045728
0.02400000000000002,0.0334998412224898,0.01174927183475084
0.02500000000000036,0.03405631047521996,0.0124329878956505
0.0259999999999998,0.03508975337314739,0.01311687078787695
0.02700000000000014,0.03691815234640362,0.01380173119960335
0.02799999999999958,0.03660016991627211,0.01448829080293214
0.02899999999999991,0.03604370066354195,0.01517543723447414
0.03000000000000025,0.03524874458821315,0.01586075560324083
0.03099999999999969,0.03501025776561451,0.01654190480038766
0.03200000000000003,0.03477177094301587,0.0172171117994191
0.03300000000000036,0.03453328412041724,0.01788498853595472
0.03399999999999981,0.03421530169028571,0.01854420705727134
0.03500000000000014,0.03373832804508844,0.01919338435326443
0.03599999999999959,0.0334998412224898,0.01983116438361002
0.03699999999999992,0.03302286757729252,0.02045633310536669
0.03800000000000026,0.03111497299650341,0.02106697569766934
0.0389999999999997,0.03183043346429933,0.02166109302540491
0.04000000000000004,0.03254589393209524,0.02223866378524076
0.04100000000000037,0.03381782365262131,0.0228012205208117
0.04199999999999982,0.03445378851288436,0.02335045977254881
0.04300000000000015,0.03580521384094331,0.02388800075971434
0.04399999999999959,0.03691815234640362,0.02441565312475739
0.04499999999999993,0.03652067430873922,0.02493452741605856
0.04600000000000026,0.03572571823341043,0.0254439346510841
0.04699999999999971,0.03516924898068027,0.02594225712546131
0.04800000000000004,0.03501025776561451,0.02642822450196257
0.04900000000000038,0.03461277972795011,0.0269010472822184
0.04999999999999982,0.03437429290535148,0.02736004697897173
0.05100000000000016,0.03413580608275284,0.02780465068753631
0.0519999999999996,0.0334998412224898,0.02823423369439914
0.05299999999999994,0.03357933683002268,0.0286481998567033
0.05400000000000027,0.03254589393209524,0.02904598101160797
0.05499999999999972,0.03103547738897053,0.02942612382917942
0.05600000000000005,0.03198942467936509,0.02978748690280301
0.05700000000000038,0.03318185879235828,0.03013127724426502
0.05799999999999983,0.0338973192601542,0.03045984104432956
0.05900000000000016,0.03477177094301587,0.03077514530270073
0.05999999999999961,0.03636168309367346,0.03107932935580105
0.06099999999999994,0.03667966552380499,0.03137457627359963
0.06200000000000028,0.03620269187860771,0.03166169920223437
0.06299999999999972,0.03564622262587755,0.03194007072848415
0.06400000000000006,0.03501025776561451,0.03220862390908152
0.06500000000000039,0.03493076215808164,0.03246652732683449
0.06599999999999984,0.03453328412041724,0.03271336252197826
0.06700000000000017,0.0342947972978186,0.0329487955902261
0.06799999999999962,0.0338973192601542,0.03317245863067277
0.06899999999999995,0.0334998412224898,0.03338395250970495
0.07000000000000028,0.03318185879235828,0.03358288753963715
0.07099999999999973,0.03175093785676645,0.03376846540500545
0.07200000000000006,0.03143295542663493,0.03393946742817357
0.0730000000000004,0.03222791150196373,0.03409584129301962
0.07399999999999984,0.0334998412224898,0.03423939091871726
0.07500000000000018,0.03405631047521996,0.03437248183457689
0.07599999999999962,0.03508975337314739,0.03449712810728467
0.07699999999999996,0.03691815234640362,0.03461573221066857
0.07800000000000029,0.03652067430873922,0.03473048655699958
0.07899999999999974,0.03596420505600907,0.0348416329983397
0.08000000000000007,0.03516924898068027,0.03494807484910681
0.08100000000000041,0.03493076215808164,0.03504875285573699
0.08199999999999985,0.034692275335483,0.03514310122451664
0.08300000000000018,0.03437429290535148,0.03523082869084996
0.08399999999999963,0.03413580608275284,0.03531163628440975
0.08499999999999996,0.03365883243755556,0.03538518034563056
0.0860000000000003,0.0334998412224898,0.03545111391360088
0.08699999999999974,0.03294337196975964,0.03550912561238737
0.08800000000000008,0.03095598178143765,0.03555802555180061
0.08900000000000041,0.03175093785676645,0.03559648524128423
0.08999999999999986,0.03254589393209524,0.0356252538320473
0.09100000000000019,0.03381782365262131,0.0356466125428653
0.09199999999999964,0.03437429290535148,0.03566283260741093
0.09299999999999997,0.03572571823341043,0.03567598142155633
0.09400000000000031,0.03683865673887075,0.03568831116381123
0.09499999999999975,0.03652067430873922,0.03570140679560578
0.09600000000000009,0.03580521384094331,0.03571508278518502
0.09700000000000042,0.03508975337314739,0.03572809910412356
0.09799999999999986,0.03501025776561451,0.03573940619254297
0.0990000000000002,0.03453328412041724,0.03574843960541675
0.09999999999999964,0.03445378851288436,0.03575478751757906
0.101,0.03413580608275284,0.03575814424126992
0.1020000000000003,0.0334998412224898,0.03575803822251603
0.1029999999999998,0.03357933683002268,0.03575395706128928
0.1040000000000001,0.03246639832456236,0.03574538898937035
0.1050000000000004,0.03095598178143765,0.03573087325004887
0.1059999999999999,0.0319099290718322,0.03570927711487298
0.1070000000000002,0.03318185879235828,0.03568186940870138
0.1079999999999997,0.0338973192601542,0.03565106990987717
0.109,0.034692275335483,0.03561881605858363
0.1100000000000003,0.03628218748614059,0.03558712079133942
0.1109999999999998,0.03660016991627211,0.03555806411501353
0.1120000000000001,0.03620269187860771,0.0355324162549979
0.1130000000000004,0.03556672701834467,0.03550948741260117
0.1139999999999999,0.03493076215808164,0.03548805404828644
0.1150000000000002,0.03485126655054875,0.03546711599096845
0.1159999999999997,0.03445378851288436,0.0354461129513726
0.117,0.03421530169028571,0.03542455673752523
0.1180000000000003,0.03381782365262131,0.03540191375275149
0.1189999999999998,0.0334998412224898,0.0353776467903236
0.1200000000000001,0.03318185879235828,0.03535125430248477
0.1210000000000004,0.03175093785676645,0.03532177490749897
0.1219999999999999,0.03151245103416781,0.0352878170925165
0.1230000000000002,0.03222791150196373,0.03524914685988844
0.1239999999999997,0.0334998412224898,0.03520730243970095
0.125,0.03413580608275284,0.03516441933070232
0.1260000000000003,0.03516924898068027,0.03512235352938656
0.1269999999999998,0.03691815234640362,0.03508326525199203
0.1280000000000001,0.03652067430873922,0.03504902603061412
0.1289999999999996,0.03604370066354195,0.03501963568238155
0.1299999999999999,0.03532824019574603,0.03499386803994997
0.1310000000000002,0.03508975337314739,0.03497052628144016
0.1319999999999997,0.03477177094301587,0.03494878564413802
0.133,0.03445378851288436,0.03492802036791964
0.1340000000000003,0.03421530169028571,0.03490764074422892
0.1349999999999998,0.03373832804508844,0.03488705403737688
0.1360000000000001,0.03357933683002268,0.03486566580203929
0.1369999999999996,0.03302286757729252,0.0348429191466389
0.1379999999999999,0.03103547738897053,0.03481738098455461
0.1390000000000002,0.0319099290718322,0.03478752029522866
0.1399999999999997,0.03262538953962812,0.03475388426718122
0.141,0.0338973192601542,0.03471847703095291
0.1420000000000003,0.03445378851288436,0.03468329873368186
0.1429999999999998,0.03580521384094331,0.03465018986384664
0.1440000000000001,0.03683865673887075,0.034621141583929
0.1449999999999996,0.03652067430873922,0.03459744629689407
0.1459999999999999,0.03572571823341043,0.03457863486358043
0.1470000000000002,0.03508975337314739,0.03456323062189612
0.1479999999999997,0.03501025776561451,0.03455002998087272
0.149,0.03453328412041724,0.03453831631150821
0.1500000000000004,0.03437429290535148,0.03452745158612736
0.1509999999999998,0.03397681486768708,0.03451683481384189
0.1520000000000001,0.03342034561495692,0.0345057488563965
0.1529999999999996,0.0334998412224898,0.03449355895039721
0.1539999999999999,0.03238690271702949,0.0344796328854234
0.1550000000000002,0.03103547738897053,0.03446242952020206
0.1559999999999997,0.03198942467936509,0.03444081154832455
0.157,0.03318185879235828,0.03441592432634944
0.1580000000000004,0.0338973192601542,0.0343899527143229
0.1589999999999998,0.034692275335483,0.03436464707665866
0.1600000000000001,0.03636168309367346,0.03434191659800789
0.1609999999999996,0.03660016991627211,0.03432373996190529
0.1619999999999999,0.03604370066354195,0.0343106364558581
0.1630000000000003,0.03556672701834467,0.03430167736448116
0.1639999999999997,0.03493076215808164,0.03429560209366399
0.165,0.03477177094301587,0.03429133498432074
0.1660000000000004,0.03445378851288436,0.03428816627659162
0.1669999999999998,0.0342947972978186,0.03428557920649444
0.1680000000000001,0.03381782365262131,0.03428301116544293
0.1689999999999996,0.03342034561495692,0.03427974348727116
0.1699999999999999,0.0331023631848254,0.03427506436928327
0.1710000000000003,0.03159194664170069,0.03426785157132657
0.1719999999999997,0.03143295542663493,0.03425659943326009
0.173,0.03214841589443085,0.03424104193166799
0.1740000000000004,0.03342034561495692,0.03422268643265054
0.1749999999999998,0.03405631047521996,0.03420360069895802
0.1760000000000002,0.03508975337314739,0.03418557650536535
0.1769999999999996,0.03683865673887075,0.03417071327059833
0.1779999999999999,0.03652067430873922,0.03416086308472747
0.1790000000000003,0.03596420505600907,0.03415600718717464
0.1799999999999997,0.03524874458821315,0.03415482563548426
0.181,0.03493076215808164,0.03415599539368588
0.1820000000000004,0.03461277972795011,0.0341585732755521
0.1829999999999998,0.03437429290535148,0.03416189868742765
0.1840000000000002,0.03413580608275284,0.03416542567874868
0.1849999999999996,0.03357933683002268,0.03416852692760852
0.1859999999999999,0.0334998412224898,0.03417053789411423
0.1870000000000003,0.03294337196975964,0.0341709124368356
0.1879999999999997,0.03103547738897053,0.03416826612224332
0.1890000000000001,0.03183043346429933,0.03416107605112022
0.1900000000000004,0.03262538953962812,0.03414985944204414
0.1909999999999998,0.03381782365262131,0.03413659275224572
0.1920000000000002,0.03445378851288436,0.03412325066596868
0.1929999999999996,0.03580521384094331,0.03411168835643786
0.194,0.03683865673887075,0.03410391133524748
0.1950000000000003,0.03644117870120635,0.0341011499668312
0.1959999999999997,0.03572571823341043,0.03410287747812468
0.1970000000000001,0.03508975337314739,0.03410763986602819
0.1980000000000004,0.03501025776561451,0.03411425553789519
0.1989999999999998,0.03453328412041724,0.03412199117787247
0.2000000000000002,0.03437429290535148,0.03413019378474799
0.2009999999999996,0.03405631047521996,0.03413828705468884
0.202,0.0334998412224898,0.03414561574663483
0.2030000000000003,0.03357933683002268,0.03415156578647158
0.2039999999999997,0.03246639832456236,0.03415548690253672
0.2050000000000001,0.03103547738897053,0.03415578352442417
0.2060000000000004,0.0319099290718322,0.03415119183409136
0.2069999999999999,0.03318185879235828,0.03414277727116781
0.2080000000000002,0.0338973192601542,0.03413276474788365
0.2089999999999996,0.03477177094301587,0.03412298125893991
0.21,0.03636168309367346,0.03411537078943264
0.2110000000000003,0.03660016991627211,0.03411186943913311
0.2119999999999997,0.03612319627107483,0.0341129953654602
0.2130000000000001,0.03556672701834467,0.03411785766690719
0.2140000000000004,0.03501025776561451,0.03412519403017097
0.2149999999999999,0.03485126655054875,0.03413396598757731
0.2160000000000002,0.03453328412041724,0.03414349942990365
0.2169999999999996,0.0342947972978186,0.0341532356832901
0.218,0.0338973192601542,0.03416257349358794
0.2190000000000003,0.0334998412224898,0.03417083473441757
0.2199999999999998,0.03318185879235828,0.03417734640755321
0.2210000000000001,0.03175093785676645,0.03418102337290289
0.2220000000000004,0.03143295542663493,0.03418035737582549
0.2229999999999999,0.03222791150196373,0.0341750044916387
0.2240000000000002,0.0334998412224898,0.03416647568043055
0.2249999999999996,0.03413580608275284,0.03415688082669494
0.226,0.03516924898068027,0.03414801389464631
0.2270000000000003,0.03699764795393651,0.03414201502053428
0.2279999999999998,0.03660016991627211,0.03414077510509109
0.2290000000000001,0.03604370066354195,0.03414423628793455
0.2300000000000004,0.03524874458821315,0.0341510044345513
0.2309999999999999,0.03501025776561451,0.03415972553790571
0.2320000000000002,0.034692275335483,0.0341695041244407
0.2329999999999997,0.03437429290535148,0.03417968707046611
0.234,0.03413580608275284,0.03418966005443104
0.2350000000000003,0.03357933683002268,0.03419877033619813
0.2359999999999998,0.0334998412224898,0.03420636835632553
0.2370000000000001,0.03294337196975964,0.03421192285346389
0.2380000000000004,0.03095598178143765,0.03421402612895971
0.2389999999999999,0.03183043346429933,0.03421113425162103
0.2400000000000002,0.03254589393209524,0.0342037835685704
0.2409999999999997,0.0338973192601542,0.03419400735599225
0.242,0.03445378851288436,0.03418387241494598
0.2430000000000003,0.03580521384094331,0.03417524495088699
0.2439999999999998,0.03675916113133786,0.03417006531523815
0.2450000000000001,0.03652067430873922,0.03416957935116786
0.2460000000000004,0.03564622262587755,0.03417331346490541
0.2469999999999999,0.03508975337314739,0.03417978807966444
0.2480000000000002,0.03493076215808164,0.03418779814196308
0.2489999999999997,0.03445378851288436,0.03419658890482378
0.25,0.0342947972978186,0.03420548788363532
0.2510000000000003,0.03397681486768708,0.03421393918059313
0.2519999999999998,0.0334998412224898,0.03422134539396508
0.2530000000000001,0.0334998412224898,0.03422714732089769
0.2539999999999996,0.0323074071094966,0.0342306326004465
0.2549999999999999,0.03103547738897053,0.03423018590814368
0.2560000000000002,0.0319099290718322,0.03422467754695358
0.2569999999999997,0.03318185879235828,0.03421526125973211
0.258,0.03397681486768708,0.03420420705151805
0.2590000000000003,0.03485126655054875,0.03419342237634154
0.2599999999999998,0.03652067430873922,0.0341849267257386
0.2610000000000001,0.03660016991627211,0.03418065086379111
0.2619999999999996,0.03620269187860771,0.03418103167890727
0.2629999999999999,0.03564622262587755,0.03418517791367828
0.2640000000000002,0.03501025776561451,0.03419182686489441
0.2649999999999997,0.03485126655054875,0.03419986359888291
0.266,0.03453328412041724,0.03420858028777553
0.2670000000000003,0.03437429290535148,0.0342174627831193
0.2679999999999998,0.0338973192601542,0.03422595172897173
0.2690000000000001,0.03357933683002268,0.03423337032654327
0.2699999999999996,0.03318185879235828,0.03423904681285037
0.2709999999999999,0.03167144224923357,0.03424182114903435
0.2720000000000002,0.03151245103416781,0.03424015287163384
0.2729999999999997,0.0323074071094966,0.03423382007927611
0.274,0.03365883243755556,0.03422444831859654
0.2750000000000004,0.03413580608275284,0.0342141407879252
0.2759999999999998,0.03524874458821315,0.03420460887631674
0.2770000000000001,0.03707714356146938,0.03419799110210799
0.2779999999999996,0.03660016991627211,0.03419617675799236
0.2789999999999999,0.03596420505600907,0.0341989923205604
0.2800000000000002,0.03524874458821315,0.03420497315948699
0.2809999999999997,0.03501025776561451,0.03421281338202112
0.282,0.034692275335483,0.03422166289245439
0.2830000000000004,0.03445378851288436,0.0342309112875022
0.2839999999999998,0.03413580608275284,0.03423998438786677
0.2850000000000001,0.03365883243755556,0.03424822907448332
0.2859999999999996,0.0334998412224898,0.03425499536634012
0.2869999999999999,0.03294337196975964,0.03425971351881913
0.2880000000000003,0.03103547738897053,0.03426097771315715
0.2889999999999997,0.03183043346429933,0.03425728381182377
0.29,0.032704885147161,0.03424920547341996
0.2910000000000004,0.03381782365262131,0.03423877285999809
0.2919999999999998,0.03445378851288436,0.03422793564351478
0.2930000000000001,0.03588470944847619,0.03421856415282962
0.2939999999999996,0.03675916113133786,0.03421267873768886
0.2949999999999999,0.03652067430873922,0.03421148625159702
0.2960000000000003,0.03572571823341043,0.03421451449755145
0.2969999999999997,0.03508975337314739,0.03422032323209234
0.298,0.03501025776561451,0.03422770625272149
0.2990000000000004,0.03453328412041724,0.03423594568120705
0.2999999999999998,0.03437429290535148,0.03424440352278599
0.3010000000000002,0.03405631047521996,0.03425251804631722
0.3019999999999996,0.03342034561495692,0.03425961012563002
0.3029999999999999,0.03342034561495692,0.03426496769728578
0.3040000000000003,0.0323074071094966,0.0342678491187767
0.3049999999999997,0.03103547738897053,0.03426672593089156
0.306,0.03198942467936509,0.03426055017725856
0.3070000000000004,0.03318185879235828,0.03425051434848798
0.3079999999999998,0.03397681486768708,0.03423884871302094
0.3090000000000002,0.03485126655054875,0.03422742338058972
0.3099999999999996,0.03652067430873922,0.03421826083966865
0.3109999999999999,0.03660016991627211,0.03421329471987074
0.3120000000000003,0.03620269187860771,0.03421296464620819
0.3129999999999997,0.03564622262587755,0.03421638197152538
0.3140000000000001,0.03501025776561451,0.03422228647917704
0.3150000000000004,0.03493076215808164,0.03422960362355039
0.3159999999999998,0.03453328412041724,0.0342376634699848
0.3170000000000002,0.0342947972978186,0.03424587327971621
0.3179999999999996,0.0338973192601542,0.0342535998989548
0.319,0.0334998412224898,0.03426017341921947
0.3200000000000003,0.03318185879235828,0.03426492870864473
0.3209999999999997,0.03159194664170069,0.03426671210331785
0.3220000000000001,0.03151245103416781,0.03426398926187686
0.3230000000000004,0.0323074071094966,0.03425658217825675
0.3239999999999998,0.03357933683002268,0.0342461196498772
0.3250000000000002,0.03413580608275284,0.03423466993794966
0.3259999999999996,0.03524874458821315,0.03422398775467445
0.327,0.03699764795393651,0.03421621430941621
0.3280000000000003,0.03652067430873922,0.03421316538827102
0.3289999999999997,0.03596420505600907,0.03421467461120074
0.3300000000000001,0.03516924898068027,0.03421932221815031
0.3310000000000004,0.03493076215808164,0.03422576847430005
0.3319999999999999,0.03461277972795011,0.03423313160872266
0.3330000000000002,0.03437429290535148,0.03424080966151537
0.3339999999999996,0.03413580608275284,0.03424827456823646
0.335,0.03357933683002268,0.03425491660278459
0.3360000000000003,0.0334998412224898,0.03426008851468118
0.3369999999999997,0.03294337196975964,0.03426326113100567
