labs/lab1/data/Dynamic/case4.csv

#Digilent WaveForms Oscilloscope Acquisition
#Device Name: Discovery3
#Serial Number: SN:210415BC9AD6
#Date Time: 2025-02-14 19:43:06.583.964.100
#Sample rate: 1000Hz
#Samples: 15000
#Trigger: None
#Potentiometer: Range: 10 mV/div Offset: -30 mV Sample Mode: Average
#MovingAverage: Input: C1 Filter: Chebyshev Low-pass 2  Freq1: 1 Hz Epsilon: 0.01 


Time (s),Potentiometer (V),MovingAverage (V)
0,0.008140742419501187,3.893686151301074e-06
0.001000000000000334,0.008935698494829985,1.960526901566978e-05
0.00199999999999978,0.01092308868315198,5.199328303687616e-05
0.003000000000000114,0.01100258429068486,0.0001023046278403555
0.003999999999999559,0.01052561064548758,0.0001701554573890646
0.004999999999999893,0.009889645785224541,0.0002536307288288127
0.006000000000000227,0.009253680924961503,0.000350483299775731
0.006999999999999673,0.009015194102362865,0.0004586906654362614
0.008000000000000007,0.008538220457165586,0.0005765973061804545
0.009000000000000341,0.008299733634566948,0.0007027055054484625
0.009999999999999787,0.007902255596902549,0.0008356306308358524
0.01100000000000012,0.00758427316677103,0.0009740589085435829
0.01199999999999957,0.007186795129106631,0.001116707620897441
0.0129999999999999,0.005676378585981919,0.001261793364455904
0.01400000000000023,0.005596882978449038,0.001407217890820503
0.01499999999999968,0.006391839053777836,0.00155226418675145
0.01600000000000001,0.007663768774303911,0.00169800844238238
0.01700000000000035,0.008299733634566948,0.001846030637807683
0.01799999999999979,0.009492167747560142,0.001997696589124377
0.01900000000000013,0.01140006232834925,0.002154852716476078
0.01999999999999957,0.01100258429068486,0.002319070962815493
0.02099999999999991,0.01036661943042182,0.002489837340732412
0.02200000000000024,0.009492167747560142,0.002665211626303526
0.02299999999999969,0.009253680924961503,0.002843324324101871
0.02400000000000002,0.008776707279764224,0.003022794205213964
0.02500000000000036,0.008538220457165586,0.003202511251351946
0.0259999999999998,0.008299733634566948,0.003381546299826932
0.02700000000000014,0.007663768774303911,0.003558951750184227
0.02799999999999958,0.007663768774303911,0.003733764494458463
0.02899999999999991,0.007027803914040873,0.003905198811775566
0.03000000000000025,0.005119909333251762,0.004071610516885343
0.03099999999999969,0.005914865408580557,0.004231236528329265
0.03200000000000003,0.006789317091442235,0.004384448770547655
0.03300000000000036,0.007902255596902549,0.004533091778121928
0.03399999999999981,0.008538220457165586,0.004678945081405705
0.03500000000000014,0.01020762821535606,0.004823837808032323
0.03599999999999959,0.0112410711132835,0.004969946357526547
0.03699999999999992,0.01092308868315198,0.005118552476128074
0.03800000000000026,0.009969141392757421,0.005268954342235744
0.0389999999999997,0.009253680924961503,0.005419348551698277
0.04000000000000004,0.009094689709895742,0.00556823110386659
0.04100000000000037,0.008617716064698466,0.005714686316497517
0.04199999999999982,0.008458724849632705,0.005857972704302214
0.04300000000000015,0.00806124681196831,0.00599743779732066
0.04399999999999959,0.00750477755923815,0.006132323883193834
0.04499999999999993,0.00758427316677103,0.00626196594623921
0.04600000000000026,0.006471334661310717,0.006385711277997123
0.04699999999999971,0.005199404940784642,0.006502045464015366
0.04800000000000004,0.005994361016113437,0.006609826191962934
0.04900000000000038,0.007266290736639511,0.006710125989697903
0.04999999999999982,0.007981751204435429,0.006805145404613478
0.05100000000000016,0.008935698494829985,0.00689677163335291
0.0519999999999996,0.01076409746808622,0.006987164235150839
0.05299999999999994,0.01100258429068486,0.007078544384044318
0.05400000000000027,0.0104461150379547,0.007171513897955066
0.05499999999999972,0.00981015017769166,0.007265076166644007
0.05600000000000005,0.009094689709895742,0.007357799543191515
0.05700000000000038,0.008935698494829985,0.007448492825625694
0.05799999999999983,0.008538220457165586,0.007536421101032918
0.05900000000000016,0.008299733634566948,0.007621013345854731
0.05999999999999961,0.007902255596902549,0.007701701497812714
0.06099999999999994,0.00750477755923815,0.007777883340886374
0.06200000000000028,0.007186795129106631,0.007848963749501739
0.06299999999999972,0.005596882978449038,0.007913861105721124
0.06400000000000006,0.005517387370916161,0.007971114892403146
0.06500000000000039,0.006312343446244956,0.008020622456950236
0.06599999999999984,0.00758427316677103,0.008064089242659981
0.06700000000000017,0.008220238027034067,0.008103699246520846
0.06799999999999962,0.009412672140027261,0.00814139743878294
0.06899999999999995,0.01132056672081638,0.008179584929466409
0.07000000000000028,0.01092308868315198,0.008220364308250567
0.07099999999999973,0.01028712382288894,0.008263728632911811
0.07200000000000006,0.009412672140027261,0.008308221583180522
0.0730000000000004,0.009094689709895742,0.008352396879713007
0.07399999999999984,0.008776707279764224,0.008395314734612571
0.07500000000000018,0.008458724849632705,0.008436360869054853
0.07599999999999962,0.008220238027034067,0.008474999829790431
0.07699999999999996,0.007663768774303911,0.008510657169869408
0.07800000000000029,0.00750477755923815,0.008542722910528622
0.07899999999999974,0.006948308306507993,0.008570668928630001
0.08000000000000007,0.005040413725718881,0.008593170490818373
0.08100000000000041,0.005914865408580557,0.008608841462457913
0.08199999999999985,0.006709821483909355,0.008618369937309498
0.08300000000000018,0.007902255596902549,0.008623858919643011
0.08399999999999963,0.008458724849632705,0.008627329734078539
0.08499999999999996,0.01012813260782318,0.008630799152467889
0.0860000000000003,0.0112410711132835,0.008636656035586499
0.08699999999999974,0.0108435930756191,0.008646417497679948
0.08800000000000008,0.009889645785224541,0.008659524086216031
0.08900000000000041,0.009174185317428623,0.008674303174914062
0.08999999999999986,0.009094689709895742,0.008689446446840622
0.09100000000000019,0.008617716064698466,0.008704256479522506
0.09199999999999964,0.008458724849632705,0.008718154793021455
0.09299999999999997,0.00806124681196831,0.008730599704555119
0.09400000000000031,0.00750477755923815,0.008740933045390397
0.09499999999999975,0.00758427316677103,0.008748578590762942
0.09600000000000009,0.006471334661310717,0.008752962152098049
0.09700000000000042,0.005119909333251762,0.008752600013487323
0.09799999999999986,0.006073856623646318,0.008746411623678023
0.0990000000000002,0.007266290736639511,0.008735598356198563
0.09999999999999964,0.00806124681196831,0.008722438309879591
0.101,0.009015194102362865,0.008708885920793528
0.1020000000000003,0.0108435930756191,0.008697158171800395
0.1029999999999998,0.01100258429068486,0.008689448284782665
0.1040000000000001,0.0104461150379547,0.008686287998969025
0.1050000000000004,0.009889645785224541,0.008686685252951997
0.1059999999999999,0.009174185317428623,0.008689283045437288
0.1070000000000002,0.009015194102362865,0.008692916459223717
0.1079999999999997,0.008538220457165586,0.008696793362985136
0.109,0.008299733634566948,0.008700245203334095
0.1100000000000003,0.007902255596902549,0.008702644750897978
0.1109999999999998,0.00750477755923815,0.008703366773924179
0.1120000000000001,0.007266290736639511,0.00870182713592561
0.1130000000000004,0.005755874193514799,0.008697025153782493
0.1139999999999999,0.005517387370916161,0.008687494707927757
0.1150000000000002,0.006312343446244956,0.008672970215612634
0.1159999999999997,0.00758427316677103,0.008655036819439693
0.117,0.008220238027034067,0.008635836514658046
0.1180000000000003,0.009333176532494384,0.008617231837257855
0.1189999999999998,0.01132056672081638,0.008601541660639325
0.1200000000000001,0.01092308868315198,0.008590862725761386
0.1210000000000004,0.01028712382288894,0.0085851779671791
0.1219999999999999,0.009412672140027261,0.008582978922834111
0.1230000000000002,0.009094689709895742,0.008582765821335105
0.1239999999999997,0.008776707279764224,0.008583544216642635
0.125,0.008458724849632705,0.008584644180929909
0.1260000000000003,0.008140742419501187,0.008585435765151465
0.1269999999999998,0.007663768774303911,0.008585251736918901
0.1280000000000001,0.00758427316677103,0.00858350518361479
0.1289999999999996,0.007027803914040873,0.008579723790820667
0.1299999999999999,0.005040413725718881,0.008572517195885282
0.1310000000000002,0.005914865408580557,0.008560357703367537
0.1319999999999997,0.006709821483909355,0.008543834853942171
0.133,0.007902255596902549,0.008524993689034656
0.1340000000000003,0.008458724849632705,0.008505797789563752
0.1349999999999998,0.0100486370002903,0.008488168477577178
0.1360000000000001,0.01116157550575061,0.008474363925353322
0.1369999999999996,0.01092308868315198,0.00846588979505479
0.1379999999999999,0.009889645785224541,0.008462249192857506
0.1390000000000002,0.009174185317428623,0.008461711345396326
0.1399999999999997,0.009094689709895742,0.008462872553129833
0.141,0.008617716064698466,0.008464981259113684
0.1420000000000003,0.008458724849632705,0.008467405678787062
0.1429999999999998,0.00806124681196831,0.008469551706295955
0.1440000000000001,0.007425281951705272,0.008470671655822394
0.1449999999999996,0.00750477755923815,0.008470065110473509
0.1459999999999999,0.006391839053777836,0.008467077398132171
0.1470000000000002,0.005040413725718881,0.008460185533415369
0.1479999999999997,0.005914865408580557,0.008448232442551893
0.149,0.007266290736639511,0.008432384172145252
0.1500000000000004,0.007981751204435429,0.008414960283499945
0.1509999999999998,0.008856202887297104,0.008397838619971593
0.1520000000000001,0.01068460186055334,0.008383086839014344
0.1529999999999996,0.01092308868315198,0.008372870909562281
0.1539999999999999,0.0104461150379547,0.008367810045559572
0.1550000000000002,0.009889645785224541,0.008366993201392751
0.1559999999999997,0.009094689709895742,0.008369024101669514
0.157,0.008935698494829985,0.008372623651710136
0.1580000000000004,0.008458724849632705,0.00837692946386664
0.1589999999999998,0.008299733634566948,0.008381282145066862
0.1600000000000001,0.007902255596902549,0.008385100190695225
0.1609999999999996,0.00750477755923815,0.008387762310210855
0.1619999999999999,0.007186795129106631,0.008388611026664284
0.1630000000000003,0.005755874193514799,0.008386575902868801
0.1639999999999997,0.005517387370916161,0.00838020061262235
0.165,0.006312343446244956,0.008369228030194225
0.1660000000000004,0.00758427316677103,0.00835521246120606
0.1669999999999998,0.008140742419501187,0.008340228209932379
0.1680000000000001,0.009333176532494384,0.008326073652508148
0.1689999999999996,0.01132056672081638,0.008315082987280408
0.1699999999999999,0.01092308868315198,0.008309366874389627
0.1710000000000003,0.01028712382288894,0.008308882797910784
0.1719999999999997,0.009333176532494384,0.008312059909928027
0.173,0.009015194102362865,0.008317301475262556
0.1740000000000004,0.008776707279764224,0.008323597854254057
0.1749999999999998,0.008458724849632705,0.00833034076985765
0.1760000000000002,0.008140742419501187,0.008336919926558085
0.1769999999999996,0.007743264381836791,0.008342686277897821
0.1779999999999999,0.00750477755923815,0.008347031661277914
0.1790000000000003,0.007027803914040873,0.008349387484201097
0.1799999999999997,0.005040413725718881,0.008348348898134723
0.181,0.00583536980104768,0.008342374540607081
0.1820000000000004,0.006630325876376474,0.008331965035750233
0.1829999999999998,0.007902255596902549,0.008319158078561475
0.1840000000000002,0.008379229242099828,0.008305948522543405
0.1849999999999996,0.0100486370002903,0.00829424913650763
0.1859999999999999,0.01116157550575061,0.008286348188166029
0.1870000000000003,0.01092308868315198,0.008283779661854349
0.1879999999999997,0.009889645785224541,0.008286035243476248
0.1890000000000001,0.009253680924961503,0.008291411471871856
0.1900000000000004,0.009094689709895742,0.008298530270499394
0.1909999999999998,0.008617716064698466,0.008306588024647612
0.1920000000000002,0.008379229242099828,0.00831486604030799
0.1929999999999996,0.008140742419501187,0.008322764795945719
0.194,0.00750477755923815,0.008329645778552351
0.1950000000000003,0.00758427316677103,0.008334873090421288
0.1959999999999997,0.006471334661310717,0.008337776484878299
0.1970000000000001,0.005040413725718881,0.008336780213736532
0.1980000000000004,0.005994361016113437,0.008330677628979372
0.1989999999999998,0.007266290736639511,0.008320626315610143
0.2000000000000002,0.007981751204435429,0.008308899966068244
0.2009999999999996,0.008856202887297104,0.008297333524465791
0.202,0.01068460186055334,0.008287992643217027
0.2030000000000003,0.01092308868315198,0.008283041683839665
0.2039999999999997,0.0104461150379547,0.008283098629466634
0.2050000000000001,0.00981015017769166,0.00828721353736612
0.2060000000000004,0.009094689709895742,0.008293953947964502
0.2069999999999999,0.008935698494829985,0.008302083245072575
0.2080000000000002,0.008538220457165586,0.00831081731194859
0.2089999999999996,0.008299733634566948,0.008319532455365972
0.21,0.007822759989369668,0.00832756676587448
0.2110000000000003,0.007425281951705272,0.008334185677469901
0.2119999999999997,0.007186795129106631,0.00833873986540979
0.2130000000000001,0.005676378585981919,0.008340205054028084
0.2140000000000004,0.00543789176338328,0.008337092629135925
0.2149999999999999,0.006312343446244956,0.008329153610244305
0.2160000000000002,0.00750477755923815,0.00831798841582416
0.2169999999999996,0.00806124681196831,0.008305638974406115
0.218,0.009253680924961503,0.008293873660613403
0.2190000000000003,0.0112410711132835,0.008285036981495958
0.2199999999999998,0.0108435930756191,0.008281249731358655
0.2210000000000001,0.01020762821535606,0.008282479345088987
0.2220000000000004,0.009333176532494384,0.008287202756750052
0.2229999999999999,0.009094689709895742,0.008293944482969197
0.2240000000000002,0.008697211672231347,0.008301732832065822
0.2249999999999996,0.008379229242099828,0.008309843101414503
0.226,0.008140742419501187,0.008317631908004931
0.2270000000000003,0.007663768774303911,0.008324495469434685
0.2279999999999998,0.00750477755923815,0.008329830337082981
0.2290000000000001,0.007027803914040873,0.008333110575345507
0.2300000000000004,0.005040413725718881,0.008332971532298762
0.2309999999999999,0.00583536980104768,0.008327871631522127
0.2320000000000002,0.006550830268843594,0.008318273321713107
0.2329999999999997,0.007743264381836791,0.008306102511804653
0.234,0.008299733634566948,0.008293287400233256
0.2350000000000003,0.0100486370002903,0.008281830691916701
0.2359999999999998,0.01116157550575061,0.008274143453846595
0.2370000000000001,0.0108435930756191,0.008271761016742948
0.2380000000000004,0.009969141392757421,0.008274176384156872
0.2389999999999999,0.009174185317428623,0.00827972540550626
0.2400000000000002,0.009015194102362865,0.00828695284058998
0.2409999999999997,0.008538220457165586,0.00829498270949066
0.242,0.008299733634566948,0.008303104644035055
0.2430000000000003,0.00806124681196831,0.008310727189297318
0.2439999999999998,0.007425281951705272,0.008317219639925695
0.2450000000000001,0.007425281951705272,0.008321915625224018
0.2460000000000004,0.006391839053777836,0.008324116545234303
0.2469999999999999,0.004960918118186001,0.008322296388890496
0.2480000000000002,0.00583536980104768,0.00831525744133998
0.2489999999999997,0.007107299521573754,0.008304089849755692
0.25,0.007981751204435429,0.008291118366686721
0.2510000000000003,0.008856202887297104,0.008278340216263067
0.2519999999999998,0.01068460186055334,0.008267897388773614
0.2530000000000001,0.01108207989821773,0.008262025747938389
0.2539999999999996,0.0104461150379547,0.008261410099632317
0.2549999999999999,0.00981015017769166,0.008265010710317343
0.2560000000000002,0.009094689709895742,0.008271310467588828
0.2569999999999997,0.009015194102362865,0.008279107158373253
0.258,0.008538220457165586,0.008287648777676062
0.2590000000000003,0.008379229242099828,0.008296303507608365
0.2599999999999998,0.007981751204435429,0.008304477598644054
0.2610000000000001,0.00758427316677103,0.008311538153996835
0.2619999999999996,0.007186795129106631,0.0083167786901964
0.2629999999999999,0.005755874193514799,0.008319044723279063
0.2640000000000002,0.00543789176338328,0.00831680114651316
0.2649999999999997,0.006312343446244956,0.008309755173955524
0.266,0.00758427316677103,0.008299504049147401
0.2670000000000003,0.008140742419501187,0.008288162722743759
0.2679999999999998,0.009253680924961503,0.008277491941914133
0.2690000000000001,0.0112410711132835,0.008269752838202036
0.2699999999999996,0.0108435930756191,0.008267025899140218
0.2709999999999999,0.01020762821535606,0.008269278788962234
0.2720000000000002,0.009333176532494384,0.00827498872803841
0.2729999999999997,0.009015194102362865,0.008282642549818295
0.274,0.008697211672231347,0.008291233305250948
0.2750000000000004,0.008379229242099828,0.008300079425508136
0.2759999999999998,0.008140742419501187,0.008308578175039182
0.2770000000000001,0.00758427316677103,0.008316087960558733
0.2779999999999996,0.007425281951705272,0.008321931913164932
0.2789999999999999,0.006948308306507993,0.008325553410680111
0.2800000000000002,0.004960918118186001,0.008325597317593671
0.2809999999999997,0.005755874193514799,0.0083205313001444
0.282,0.006550830268843594,0.008310864797286755
0.2830000000000004,0.007902255596902549,0.008298682123494475
0.2839999999999998,0.008458724849632705,0.008286098198892096
0.2850000000000001,0.009889645785224541,0.00827502451360013
0.2859999999999996,0.01116157550575061,0.008267634066647937
0.2869999999999999,0.0108435930756191,0.008265466846101905
0.2880000000000003,0.009889645785224541,0.00826805840917119
0.2889999999999997,0.009253680924961503,0.008273746632619363
0.29,0.009094689709895742,0.008281192318864353
0.2910000000000004,0.008538220457165586,0.008289552302910794
0.2919999999999998,0.008379229242099828,0.008298070784178265
0.2930000000000001,0.00806124681196831,0.008306151523638569
0.2939999999999996,0.00750477755923815,0.008313159203779624
0.2949999999999999,0.00750477755923815,0.008318461034539435
0.2960000000000003,0.006471334661310717,0.008321389788414162
0.2969999999999997,0.004960918118186001,0.008320372647497666
0.298,0.005994361016113437,0.008314205804944167
0.2990000000000004,0.007186795129106631,0.008304049597781556
0.2999999999999998,0.00806124681196831,0.008292218403910808
0.3010000000000002,0.008935698494829985,0.008280661432383978
0.3019999999999996,0.01060510625302046,0.008271437390656632
0.3029999999999999,0.01108207989821773,0.008266665888240338
0.3040000000000003,0.01052561064548758,0.008267074837976163
0.3049999999999997,0.009889645785224541,0.008271741190664934
0.306,0.009174185317428623,0.00827918132418214
0.3070000000000004,0.009015194102362865,0.008288148298713072
0.3079999999999998,0.008458724849632705,0.008297771990607414
0.3090000000000002,0.008299733634566948,0.008307309789450172
0.3099999999999996,0.007981751204435429,0.008316178314712425
0.3109999999999999,0.00750477755923815,0.008323792793657374
0.3120000000000003,0.007186795129106631,0.008329454197194299
0.3129999999999997,0.00583536980104768,0.008332091343511372
0.3140000000000001,0.00543789176338328,0.008330247475558746
0.3150000000000004,0.006232847838712075,0.008323551265005754
0.3159999999999998,0.00750477755923815,0.00831348824536892
0.3170000000000002,0.008140742419501187,0.008302182802942279
0.3179999999999996,0.009253680924961503,0.008291480884920894
0.319,0.01132056672081638,0.008283723788439537
0.3200000000000003,0.01092308868315198,0.008281067283868416
0.3209999999999997,0.01028712382288894,0.008283511564909373
0.3220000000000001,0.009412672140027261,0.008289526156418712
0.3230000000000004,0.009174185317428623,0.008297628468385228
0.3239999999999998,0.008856202887297104,0.008306878022767876
0.3250000000000002,0.008538220457165586,0.008316617269135122
0.3259999999999996,0.008220238027034067,0.008326189541719669
0.327,0.007663768774303911,0.008334864217304581
