labs/lab1/data/Deg130.csv

#Digilent WaveForms Oscilloscope Acquisition
#Device Name: Discovery3
#Serial Number: SN:210415BC9AD6
#Date Time: 2025-02-14 19:35:15.339.729.420
#Sample rate: 1000Hz
#Samples: 5000
#Trigger: None
#Potentiometer: Range: 10 mV/div Offset: -30 mV Sample Mode: Average
#MovingAverage: Input: C1 Filter: Chebyshev Low-pass 2  Freq1: 1 Hz Epsilon: 0.01 


Time (s),Potentiometer (V),MovingAverage (V)
0,0.001383615779206416,6.617781672236929e-07
0.0009999999999998899,0.001145128956607778,3.153457120961921e-06
0.00199999999999978,0.0008271465264762592,7.640941106584743e-06
0.003000000000000114,0.0001911816662132221,1.327228273824643e-05
0.004000000000000004,0.0002706772737461026,1.924496955156703e-05
0.004999999999999893,-0.0005242788015826956,2.491853128457257e-05
0.005999999999999783,-0.002670660204970449,2.855120564185712e-05
0.007000000000000117,-0.001637217307043012,2.832056433627535e-05
0.008000000000000007,-0.0006037744091155761,2.491741421904454e-05
0.008999999999999897,0.0005886597038776212,2.059371561921374e-05
0.009999999999999787,0.001304120171673539,1.739068852254661e-05
0.01100000000000012,0.002814536714798251,1.722372177341236e-05
0.01200000000000001,0.003768484005192807,2.21524902190955e-05
0.0129999999999999,0.003450501575061288,3.334166495078515e-05
0.01399999999999979,0.002496554284666733,5.008631132264562e-05
0.01500000000000012,0.001781093816870815,7.061092981272081e-05
0.01600000000000001,0.001701598209337934,9.346850918119785e-05
0.0169999999999999,0.001224624564140658,0.0001178275699557313
0.01799999999999979,0.0009861377415420203,0.0001429421655519912
0.01900000000000013,0.0006681553114105017,0.0001681101041975731
0.02000000000000002,0.0001116860586803416,0.0001925955962211332
0.02099999999999991,0.0001116860586803416,0.0002157087425705896
0.0219999999999998,-0.00131923487691149,0.0002365379169300104
0.02300000000000013,-0.002511668989904688,0.0002532425189087599
0.02400000000000002,-0.001478226091977251,0.0002647097292409761
0.02499999999999991,-0.000206296371451177,0.00027226157184449
0.0259999999999998,0.0005886597038776212,0.0002782120827876694
0.02700000000000014,0.001542606994272177,0.0002844719866335406
0.02800000000000002,0.003609492790127046,0.0002932919056923511
0.02899999999999991,0.003450501575061288,0.0003068572335008366
0.0299999999999998,0.003053023537396889,0.0003255008510623329
0.03100000000000014,0.002337563069600972,0.000348080899403246
0.03200000000000003,0.001781093816870815,0.0003731749765612223
0.03299999999999992,0.001622102601805057,0.0003996321726955691
0.03399999999999981,0.001224624564140658,0.0004267109109216858
0.03500000000000014,0.0009861377415420203,0.0004537513831990739
0.03600000000000003,0.0005091640963447407,0.0004800577906351836
0.03699999999999992,0.0001911816662132221,0.0005049018555964198
0.03799999999999981,-0.0002857919789840541,0.0005275642055918721
0.03900000000000015,-0.002034695344707411,0.0005466888284339405
0.04000000000000004,-0.001955199737174527,0.0005605904007488801
0.04099999999999993,-0.001160243661845733,0.0005691785893081721
0.04199999999999982,0.0003501728812789831,0.0005742798229292603
0.04300000000000015,0.0009066421340091398,0.0005781868668655707
0.04400000000000004,0.002178571854535214,0.000582827707232571
0.04499999999999993,0.004006970827791445,0.000590506392379357
0.04599999999999982,0.003609492790127046,0.0006031914332000541
0.04700000000000015,0.002735041107265371,0.0006206312462468591
0.04800000000000004,0.001940085031936576,0.000641097520038737
0.04899999999999993,0.001860589424403696,0.0006631509912663296
0.04999999999999982,0.001383615779206416,0.0006859688857593338
0.05100000000000016,0.001065633349074897,0.0007088148449397832
0.05200000000000005,0.0008271465264762592,0.0007309970759142648
0.05299999999999994,0.0002706772737461026,0.0007518669746262943
0.05399999999999983,0.0001911816662132221,0.0007707797273590415
0.05500000000000016,-0.0006037744091155761,0.0007870953147705576
0.05600000000000005,-0.002670660204970449,0.000799152839851337
0.05699999999999994,-0.001637217307043012,0.0008053241490156626
0.05799999999999983,-0.0006832700166484532,0.0008064103772930821
0.05900000000000016,0.0005886597038776212,0.0008047327647350327
0.06000000000000005,0.001304120171673539,0.000802477184699055
0.06099999999999994,0.002814536714798251,0.0008016981641556076
0.06199999999999983,0.003768484005192807,0.0008045510463695534
0.06300000000000017,0.003450501575061288,0.0008122931745786827
0.06400000000000006,0.002417058677133852,0.0008242712718160565
0.06499999999999995,0.001781093816870815,0.0008387608906389043
0.06599999999999984,0.001701598209337934,0.000854441450199782
0.06700000000000017,0.001145128956607778,0.0008705644029730149
0.06800000000000006,0.0009861377415420203,0.0008864257129756676
0.06899999999999995,0.0006681553114105017,0.0009014405505188289
0.06999999999999984,3.219045114746452e-05,0.0009149470756544419
0.07100000000000017,3.219045114746452e-05,0.0009262503933162476
0.07200000000000006,-0.00131923487691149,0.0009345118184711811
0.07299999999999995,-0.002511668989904688,0.0009380367671692223
0.07399999999999984,-0.001557721699510128,0.0009357747146223841
0.07500000000000018,-0.0001268007639182965,0.0009291072560724462
0.07600000000000007,0.0007476509189433787,0.000920557416577157
0.07699999999999996,0.001622102601805057,0.0009121947613563654
0.07799999999999985,0.003609492790127046,0.0009062292500703432
0.07900000000000018,0.003529997182594169,0.000904808389162766
0.08000000000000007,0.003053023537396889,0.0009083058972993431
0.08099999999999996,0.002258067462068095,0.0009155425397049795
0.08199999999999985,0.001701598209337934,0.0009250231584256014
0.08300000000000018,0.001463111386739296,0.0009355670353846921
0.08400000000000007,0.001065633349074897,0.0009464051653987226
0.08499999999999996,0.0009066421340091398,0.0009569286452255195
0.08599999999999985,0.0004296684888118601,0.0009665660699074252
0.08700000000000019,0.0001116860586803416,0.0009746682864937064
0.08800000000000008,-0.0003652875865169346,0.0009805523696104356
0.08899999999999997,-0.002114190952240289,0.0009828966153660116
0.08999999999999986,-0.002034695344707411,0.000980047933821391
0.09100000000000019,-0.001239739269378613,0.0009719462143753269
0.09200000000000008,0.0002706772737461026,0.0009604461616848835
0.09299999999999997,0.0007476509189433787,0.000947828911473867
0.09399999999999986,0.002099076247002334,0.0009360113777076397
0.0950000000000002,0.003927475220258565,0.0009273631262683681
0.09600000000000009,0.003450501575061288,0.0009238759416484042
0.09699999999999998,0.002735041107265371,0.0009253198077371424
0.09799999999999986,0.001940085031936576,0.0009301004035962339
0.0990000000000002,0.001781093816870815,0.0009368276988254093
0.1000000000000001,0.001304120171673539,0.0009446104137446009
0.101,0.001065633349074897,0.0009527233234684932
0.1019999999999999,0.0007476509189433787,0.0009605225385414944
0.1030000000000002,0.0001911816662132221,0.0009673277410474492
0.1040000000000001,0.0001116860586803416,0.0009724637160647987
0.105,-0.0005242788015826956,0.0009753754016686011
0.1059999999999999,-0.002670660204970449,0.0009745190193332652
0.1070000000000002,-0.001716712914575889,0.0009682234099208832
0.1080000000000001,-0.0006832700166484532,0.000957210431152724
0.109,0.0005886597038776212,0.0009438402133569323
0.1099999999999999,0.001304120171673539,0.0009303343856822978
0.1110000000000002,0.002814536714798251,0.0009187421954803449
0.1120000000000001,0.003768484005192807,0.0009112131900608364
0.113,0.003450501575061288,0.0009089984427467874
0.1139999999999999,0.002496554284666733,0.000911475995859197
0.1150000000000002,0.001860589424403696,0.0009169879728193023
0.1160000000000001,0.001781093816870815,0.0009242373069008309
0.117,0.001304120171673539,0.0009324964944218763
0.1179999999999999,0.001145128956607778,0.0009411182048355263
0.1190000000000002,0.0007476509189433787,0.0009494936387459202
0.1200000000000001,0.0001116860586803416,0.0009568612456967918
0.121,0.0001116860586803416,0.0009624695269134964
0.1219999999999999,-0.001239739269378613,0.0009654637967123172
0.1230000000000002,-0.002432173382371804,0.0009641336213896663
0.1240000000000001,-0.001398730484444374,0.0009574508209294142
0.125,-0.0001268007639182965,0.0009467791278416886
0.1259999999999999,0.0006681553114105017,0.0009344719001439282
0.1269999999999998,0.001701598209337934,0.0009225148895357361
0.1280000000000001,0.003688988397659927,0.0009132291211137696
0.129,0.003529997182594169,0.0009087898674678045
0.1299999999999999,0.002973527929864009,0.0009094442635913907
0.1309999999999998,0.002258067462068095,0.000913931848414528
0.1320000000000001,0.001701598209337934,0.0009207950469541414
0.133,0.001542606994272177,0.0009289262173658625
0.1339999999999999,0.001145128956607778,0.0009376246109960106
0.1349999999999998,0.0009066421340091398,0.0009462688779904459
0.1360000000000001,0.0005886597038776212,0.0009542754225228485
0.137,0.0001911816662132221,0.0009610592092387527
0.1379999999999999,-0.000206296371451177,0.0009659589249261927
0.1389999999999998,-0.002034695344707411,0.0009676345066724275
0.1400000000000001,-0.00187570412964165,0.0009644150139463011
0.141,-0.001160243661845733,0.000956222997328595
0.1419999999999999,0.0002706772737461026,0.0009448202917020577
0.1429999999999998,0.0008271465264762592,0.0009324004314103231
0.1440000000000001,0.002099076247002334,0.0009208738906960496
0.145,0.004006970827791445,0.000912604006842312
0.1459999999999999,0.003529997182594169,0.0009096145684369503
0.1469999999999998,0.002735041107265371,0.0009116673733366548
0.1480000000000001,0.001940085031936576,0.0009170841529636821
0.149,0.001781093816870815,0.0009244339863746684
0.1499999999999999,0.001383615779206416,0.000932863252095612
0.1509999999999998,0.001065633349074897,0.0009416820556190897
0.1520000000000001,0.0008271465264762592,0.0009502415610493356
0.153,0.0002706772737461026,0.0009578947221287651
0.1539999999999999,0.0001911816662132221,0.0009639974117764574
0.1549999999999998,-0.0005242788015826956,0.0009679475000443291
0.1560000000000001,-0.002670660204970449,0.0009681188328472028
0.157,-0.001637217307043012,0.0009628389323466305
0.1579999999999999,-0.0006832700166484532,0.0009528664628876683
0.1589999999999998,0.0005886597038776212,0.000940520038794413
0.1600000000000001,0.001304120171673539,0.0009279823208404105
0.161,0.002814536714798251,0.000917304078262411
0.1619999999999999,0.003768484005192807,0.0009106363916646016
0.1629999999999998,0.003450501575061288,0.0009092318754486626
0.1640000000000001,0.002417058677133852,0.000912432094931428
0.165,0.001781093816870815,0.0009185070519297793
0.1659999999999999,0.001701598209337934,0.0009261302562670769
0.1669999999999998,0.001304120171673539,0.0009346229704281131
0.1680000000000001,0.001065633349074897,0.0009433839435812379
0.169,0.0006681553114105017,0.0009517717993218046
0.1699999999999999,3.219045114746452e-05,0.0009589946268589898
0.1709999999999998,0.0001116860586803416,0.0009643487524208291
0.1720000000000002,-0.001160243661845733,0.0009671006715488139
0.173,-0.002511668989904688,0.0009655777213523154
0.1739999999999999,-0.001478226091977251,0.0009586350192796011
0.1749999999999998,-0.000206296371451177,0.0009475648177320395
0.1760000000000002,0.0005886597038776212,0.0009347296360170106
0.177,0.001542606994272177,0.0009220860572178109
0.1779999999999999,0.003609492790127046,0.0009119280087498841
0.1789999999999998,0.003529997182594169,0.0009065197301554035
0.1800000000000002,0.003053023537396889,0.0009062681624540728
0.181,0.002417058677133852,0.0009100628465604083
0.1819999999999999,0.001781093816870815,0.0009165106676169415
0.1829999999999998,0.001622102601805057,0.0009244499396466558
0.1840000000000002,0.001224624564140658,0.0009331287170695864
0.1850000000000001,0.0009861377415420203,0.0009419152481871868
0.1859999999999999,0.0005091640963447407,0.0009501398110084962
0.1869999999999998,0.0001911816662132221,0.0009570982954121869
0.1880000000000002,-0.000206296371451177,0.0009621316789366891
0.1890000000000001,-0.001955199737174527,0.000963978174007825
0.1899999999999999,-0.001955199737174527,0.0009609642562125284
0.1909999999999998,-0.001160243661845733,0.0009529339376079387
0.1920000000000002,0.0003501728812789831,0.0009416894248558967
0.1930000000000001,0.0009066421340091398,0.0009295382293659162
0.194,0.002099076247002334,0.0009183836173432964
0.1949999999999998,0.004086466435324326,0.0009105439347825005
0.1960000000000002,0.003529997182594169,0.0009080386161685678
0.1970000000000001,0.002814536714798251,0.0009106252659294536
0.198,0.002019580639469453,0.0009166596034668355
0.1989999999999998,0.001781093816870815,0.0009247044537141114
0.2000000000000002,0.001383615779206416,0.0009338241269459693
0.2010000000000001,0.001145128956607778,0.0009433276870121876
0.202,0.0008271465264762592,0.000952603352750926
0.2029999999999998,0.0001911816662132221,0.0009609247598955777
0.2040000000000002,0.0001911816662132221,0.0009675733612754872
0.2050000000000001,-0.0005242788015826956,0.0009719914177116053
0.206,-0.002670660204970449,0.0009725946251731846
0.2069999999999999,-0.001716712914575889,0.000967673844150645
0.2080000000000002,-0.0007627656241813337,0.0009579154155727301
0.2090000000000001,0.0005886597038776212,0.0009456463352281136
0.21,0.001224624564140658,0.0009330954214699431
0.2109999999999999,0.002814536714798251,0.0009223189549935108
0.2120000000000002,0.003768484005192807,0.0009155113790261815
0.2130000000000001,0.003450501575061288,0.0009139661227681672
0.214,0.002496554284666733,0.0009170630948045385
0.2149999999999999,0.001860589424403696,0.0009231462675370439
0.2160000000000002,0.001701598209337934,0.0009308823809991611
0.2170000000000001,0.001304120171673539,0.0009395100928971942
0.218,0.001145128956607778,0.0009484265556595427
0.2189999999999999,0.0008271465264762592,0.0009571029210294008
0.2200000000000002,0.0001911816662132221,0.0009648527332569985
0.2210000000000001,0.0001911816662132221,0.0009709568599912852
0.222,-0.001160243661845733,0.0009745527808679531
0.2229999999999999,-0.002432173382371804,0.0009738844773598618
0.2240000000000002,-0.001398730484444374,0.0009678428091570988
0.2250000000000001,-0.0001268007639182965,0.0009577535163630238
0.226,0.0006681553114105017,0.0009459724015419633
0.2269999999999999,0.001622102601805057,0.0009344495980607217
0.2280000000000002,0.003688988397659927,0.0009254728468045523
0.2290000000000001,0.003609492790127046,0.0009213004598606273
0.23,0.00313251914492977,0.0009223337055111576
0.2309999999999999,0.002417058677133852,0.0009274186796228243
0.2320000000000002,0.001860589424403696,0.0009351214443488206
0.2330000000000001,0.001622102601805057,0.0009442800544513042
0.234,0.001145128956607778,0.0009540663440290503
0.2349999999999999,0.0009066421340091398,0.0009637391511123641
0.2360000000000002,0.0005091640963447407,0.0009726404637422063
0.2370000000000001,0.0001116860586803416,0.000980115595593219
0.238,-0.0003652875865169346,0.0009854381921629671
0.2389999999999999,-0.002034695344707411,0.000987283648942726
0.2400000000000002,-0.002034695344707411,0.0009840340536270023
0.2410000000000001,-0.001160243661845733,0.0009756241319626027
0.242,0.0003501728812789831,0.0009639415829079281
0.2429999999999999,0.0009066421340091398,0.0009513363191467513
0.2440000000000002,0.002099076247002334,0.0009397134470956212
0.2450000000000001,0.004006970827791445,0.0009313550461592597
0.246,0.003609492790127046,0.0009282846007816183
0.2469999999999999,0.002814536714798251,0.0009303396536297817
0.2480000000000002,0.002019580639469453,0.0009358749094702856
0.2490000000000001,0.001781093816870815,0.0009434141554252323
0.25,0.001383615779206416,0.0009520230643664182
0.2509999999999999,0.001145128956607778,0.0009610119900471758
0.2519999999999998,0.0008271465264762592,0.0009697703704525594
0.2530000000000001,0.0002706772737461026,0.0009776110141079728
0.254,0.0002706772737461026,0.000983890125544029
0.2549999999999999,-0.0005242788015826956,0.000988043929939561
0.2559999999999998,-0.002591164597437565,0.0009884442295527453
0.2570000000000001,-0.001637217307043012,0.0009834165784114823
0.258,-0.0006832700166484532,0.0009736797249926021
0.2589999999999999,0.0005886597038776212,0.0009615148182636938
0.2599999999999998,0.001224624564140658,0.0009490694273473846
0.2610000000000001,0.002814536714798251,0.000938361526841436
0.262,0.003768484005192807,0.0009315876681754608
0.2629999999999999,0.003450501575061288,0.0009300433276814453
0.2639999999999998,0.002496554284666733,0.0009331103997895717
0.2650000000000001,0.001860589424403696,0.0009391347813741979
0.266,0.001781093816870815,0.0009468230980525718
0.2669999999999999,0.001224624564140658,0.0009554134327801537
0.2679999999999998,0.001065633349074897,0.0009641883107850608
0.2690000000000001,0.0006681553114105017,0.0009725114017820483
0.27,0.0001116860586803416,0.0009796717307426681
0.2709999999999999,0.0001116860586803416,0.0009850036286015657
0.2719999999999998,-0.001239739269378613,0.0009876951483353809
0.2730000000000001,-0.002511668989904688,0.0009860000107204663
0.274,-0.001478226091977251,0.0009788184588494478
0.2749999999999999,-0.0001268007639182965,0.0009675232863867457
0.2759999999999998,0.0006681553114105017,0.0009545526469800605
0.2770000000000001,0.001622102601805057,0.0009418959813068987
0.278,0.003609492790127046,0.0009318018043595075
0.2789999999999999,0.003529997182594169,0.0009264535253162664
0.2799999999999998,0.003053023537396889,0.0009262201825746101
0.2810000000000001,0.002417058677133852,0.0009299938134957752
0.282,0.001701598209337934,0.0009363457011009688
0.2829999999999999,0.001542606994272177,0.0009440428354095177
0.2839999999999998,0.001145128956607778,0.0009523045708665003
0.2850000000000001,0.0009861377415420203,0.0009605485743975709
0.286,0.0005091640963447407,0.0009681898106684688
0.2869999999999999,0.0001911816662132221,0.0009745657802703986
0.2879999999999998,-0.0002857919789840541,0.0009789805036214865
0.2890000000000001,-0.001955199737174527,0.0009801375445867456
0.29,-0.001955199737174527,0.0009764070100516285
0.2909999999999999,-0.001160243661845733,0.0009676739515188681
0.2919999999999998,0.0003501728812789831,0.0009557410793285175
0.2930000000000001,0.0009861377415420203,0.0009429543729810658
0.294,0.002099076247002334,0.0009312531346986519
0.2949999999999999,0.004086466435324326,0.000922913347948341
0.2959999999999998,0.003609492790127046,0.0009199525850668154
0.2970000000000002,0.002894032322331132,0.0009222026606166637
0.298,0.002099076247002334,0.0009280507575194575
0.2989999999999999,0.001860589424403696,0.0009360509476307794
0.2999999999999998,0.001463111386739296,0.0009452590476538708
0.3010000000000002,0.001224624564140658,0.0009549758878993177
0.302,0.0009066421340091398,0.0009645817136948541
0.3029999999999999,0.0002706772737461026,0.0009733424467914264
0.3039999999999998,0.0002706772737461026,0.0009805320845969196
0.3050000000000002,-0.0005242788015826956,0.000985547667221844
0.306,-0.002591164597437565,0.0009867623019767517
0.3069999999999999,-0.001637217307043012,0.0009825028596346743
0.3079999999999998,-0.0006832700166484532,0.0009734894138825123
0.3090000000000002,0.0005886597038776212,0.000962004444314433
0.3100000000000001,0.001224624564140658,0.000950196853222078
0.3109999999999999,0.002814536714798251,0.0009400859482098737
0.3119999999999998,0.003768484005192807,0.0009338696110111718
0.3130000000000002,0.003529997182594169,0.0009328826656241814
0.3140000000000001,0.002496554284666733,0.0009365439701295475
0.3149999999999999,0.001860589424403696,0.0009431580298793281
0.3159999999999998,0.001701598209337934,0.0009513545733393584
0.3170000000000002,0.001224624564140658,0.000960337624154816
0.3180000000000001,0.0009861377415420203,0.0009693959555062755
0.319,0.0006681553114105017,0.0009778993155188105
0.3199999999999998,3.219045114746452e-05,0.0009851426366757916
0.3210000000000002,0.0001116860586803416,0.0009904659855779908
0.3220000000000001,-0.001160243661845733,0.0009931390233552128
