labs/lab1/data/Deg170.csv

#Digilent WaveForms Oscilloscope Acquisition
#Device Name: Discovery3
#Serial Number: SN:210415BC9AD6
#Date Time: 2025-02-14 19:38:04.520.200.710
#Sample rate: 1000Hz
#Samples: 5000
#Trigger: None
#Potentiometer: Range: 10 mV/div Offset: -30 mV Sample Mode: Average
#MovingAverage: Input: C1 Filter: Chebyshev Low-pass 2  Freq1: 1 Hz Epsilon: 0.01 


Time (s),Potentiometer (V),MovingAverage (V)
0,0.0994811954747799,4.758147760665297e-05
0.0009999999999998899,0.09908371743711553,0.0002347430567608296
0.00199999999999978,0.09876573500698399,0.0005997180027433901
0.003000000000000114,0.09741430967892506,0.001129892806438197
0.004000000000000004,0.09701683164126065,0.001812607904258171
0.004999999999999893,0.09781178771658944,0.002636667565522719
0.005999999999999783,0.0991632130446484,0.003593147128885933
0.007000000000000117,0.09971968229737854,0.004674131789690323
0.008000000000000007,0.1008326208028389,0.005871719990137369
0.008999999999999897,0.1026610197760951,0.007178760160985532
0.009999999999999787,0.1023430373459636,0.008588248622521022
0.01100000000000012,0.1017070724857005,0.01009154696824616
0.01200000000000001,0.1009121164103718,0.01167895391761095
0.0129999999999999,0.1005941339802402,0.01334111906739055
0.01399999999999979,0.1002761515501087,0.01506949578970755
0.01500000000000012,0.1000376647275101,0.01685619481231257
0.01600000000000001,0.09971968229737854,0.01869373134606831
0.0169999999999999,0.09924270865218127,0.02057486280615566
0.01799999999999979,0.09908371743711553,0.02249266403778089
0.01900000000000013,0.09868623939945112,0.02444067342116951
0.02000000000000002,0.09669884921112912,0.02641192658554934
0.02099999999999991,0.09749380528645793,0.02839953251221506
0.0219999999999998,0.09820926575425384,0.03039884955370939
0.02300000000000013,0.0994811954747799,0.03240701581274207
0.02400000000000002,0.1000376647275101,0.03442147796640065
0.02499999999999991,0.1014685856631019,0.03643982536363364
0.0259999999999998,0.1025815241685622,0.03846012819437444
0.02700000000000014,0.1023430373459636,0.04048003752914645
0.02800000000000002,0.101389090055569,0.0424955604688655
0.02899999999999991,0.1008326208028389,0.04450181378171267
0.0299999999999998,0.1006736295877731,0.04649445600360191
0.03100000000000014,0.1001171603350429,0.04846981500618712
0.03200000000000003,0.09995816911997721,0.05042447424004919
0.03299999999999992,0.09964018668984567,0.05235537785214164
0.03399999999999981,0.0991632130446484,0.0542596625864416
0.03500000000000014,0.09908371743711553,0.05613465159181504
0.03600000000000003,0.09805027453918808,0.05797773418110648
0.03699999999999992,0.09661935360359625,0.05978560636799628
0.03799999999999981,0.0976527965015237,0.06155557393941033
0.03900000000000015,0.09884523061451689,0.06328742178366088
0.04000000000000004,0.0995606910823128,0.06498212340836269
0.04099999999999993,0.1004351427651745,0.06664036022335143
0.04199999999999982,0.102104550523365,0.06826314629566413
0.04300000000000015,0.1024225329534965,0.06985169218476195
0.04400000000000004,0.1019455593082992,0.07140590784457533
0.04499999999999993,0.1013095944480361,0.07292429149327211
0.04599999999999982,0.1006736295877731,0.0744049685913741
0.04700000000000015,0.1005146383727074,0.07584640241943454
0.04800000000000004,0.1001171603350429,0.07724756666036571
0.04899999999999993,0.09987867351244431,0.07860765027829808
0.04999999999999982,0.0994811954747799,0.07992593195809158
0.05100000000000016,0.0991632130446484,0.08120177604881884
0.05200000000000005,0.09884523061451689,0.08243466661159871
0.05299999999999994,0.09741430967892506,0.08362370686101485
0.05399999999999983,0.09717582285632639,0.08476764395817496
0.05500000000000016,0.09797077893165521,0.08586648992544245
0.05600000000000005,0.0991632130446484,0.08692209136122338
0.05699999999999994,0.09979917790491144,0.0879368740680317
0.05799999999999983,0.1008326208028389,0.08891304286564916
0.05900000000000016,0.102740515383628,0.08985327516709866
0.06000000000000005,0.1023430373459636,0.09076007886023668
0.06099999999999994,0.1017865680932334,0.09163401072677345
0.06199999999999983,0.1009916120179046,0.09247428789536978
0.06300000000000017,0.1006736295877731,0.09328016327847244
0.06400000000000006,0.1004351427651745,0.09405138110275904
0.06499999999999995,0.1000376647275101,0.09478799553770961
0.06599999999999984,0.09979917790491144,0.0954900856539657
0.06700000000000017,0.09932220425971416,0.09615775376316928
0.06800000000000006,0.09924270865218127,0.09679119985882553
0.06899999999999995,0.09868623939945112,0.09739071531466241
0.06999999999999984,0.09677834481866202,0.09795572622882766
0.07100000000000017,0.09749380528645793,0.09848549333457995
0.07200000000000006,0.09820926575425384,0.0989812526919636
0.07299999999999995,0.0994811954747799,0.09944575142664908
0.07399999999999984,0.1001171603350429,0.09988185814824571
0.07500000000000018,0.1016275768781677,0.1002923980107844
0.07600000000000007,0.102740515383628,0.1006804160977086
0.07699999999999996,0.1023430373459636,0.1010481316631677
0.07799999999999985,0.1014685856631019,0.1013958052309336
0.07900000000000018,0.1008326208028389,0.1017226552558852
0.08000000000000007,0.100753125195306,0.1020282535487491
0.08099999999999996,0.1002761515501087,0.1023126947961113
0.08199999999999985,0.1001171603350429,0.1025761464488667
0.08300000000000018,0.09971968229737854,0.1028188059702655
0.08400000000000007,0.0991632130446484,0.1030407465497348
0.08499999999999996,0.0991632130446484,0.1032420765829617
0.08599999999999985,0.09812977014672097,0.1034228993087443
0.08700000000000019,0.09669884921112912,0.1035824384076686
0.08800000000000008,0.0976527965015237,0.1037202714797889
0.08899999999999997,0.09892472622204976,0.1038382865744121
0.08999999999999986,0.09964018668984567,0.1039394739483866
0.09100000000000019,0.1005146383727074,0.1040263706816085
0.09200000000000008,0.1021840461308978,0.1041016536196721
0.09299999999999997,0.1024225329534965,0.1041680117159217
0.09399999999999986,0.1019455593082992,0.1042266572776364
0.0950000000000002,0.1013095944480361,0.1042772990560373
0.09600000000000009,0.1006736295877731,0.104319184472132
0.09699999999999998,0.1005941339802402,0.1043518134147897
0.09799999999999986,0.1001171603350429,0.1043750759891831
0.0990000000000002,0.09995816911997721,0.1043889249024582
0.1000000000000001,0.0995606910823128,0.1043933337384279
0.101,0.0991632130446484,0.1043882196982062
0.1019999999999999,0.09884523061451689,0.1043734471751144
0.1030000000000002,0.09749380528645793,0.1043484890119822
0.1040000000000001,0.09717582285632639,0.1043124132131595
0.105,0.09797077893165521,0.1042653921341544
0.1059999999999999,0.09924270865218127,0.1042093956830492
0.1070000000000002,0.09979917790491144,0.1041469379560632
0.1080000000000001,0.1008326208028389,0.1040801649362217
0.109,0.1026610197760951,0.1040115951196636
0.1099999999999999,0.1024225329534965,0.1039435978329468
0.1110000000000002,0.1018660637007663,0.1038766487061818
0.1120000000000001,0.1009916120179046,0.1038097476904406
0.113,0.100753125195306,0.103741803152559
0.1139999999999999,0.1003556471576416,0.1036721718275063
0.1150000000000002,0.1001171603350429,0.1036004807906405
0.1160000000000001,0.09987867351244431,0.1035264597002528
0.117,0.09932220425971416,0.103449783009044
0.1179999999999999,0.0991632130446484,0.1033700359097036
0.1190000000000002,0.09860674379191825,0.1032868726270179
0.1200000000000001,0.09669884921112912,0.103199138380182
0.121,0.09749380528645793,0.103105566995216
0.1219999999999999,0.09828876136178671,0.1030069193343644
0.1230000000000002,0.0995606910823128,0.1029054407659149
0.1240000000000001,0.1001171603350429,0.1028033600845415
0.125,0.1015480812706348,0.1027027341614797
0.1259999999999999,0.1026610197760951,0.1026058346512618
0.1269999999999998,0.1023430373459636,0.1025142180919643
0.1280000000000001,0.1014685856631019,0.1024275495410353
0.129,0.1008326208028389,0.1023444022337582
0.1299999999999999,0.1006736295877731,0.1022636192348131
0.1309999999999998,0.1001966559425758,0.1021845274362854
0.1320000000000001,0.1000376647275101,0.1021065673261433
0.133,0.09964018668984567,0.102029249152992
0.1339999999999999,0.0991632130446484,0.1019519975461987
0.1349999999999998,0.0991632130446484,0.1018743098945914
0.1360000000000001,0.09805027453918808,0.1017956008094744
0.137,0.09669884921112912,0.1017143717666845
0.1379999999999999,0.09773229210905657,0.1016296000904392
0.1389999999999998,0.09884523061451689,0.101542537153593
0.1400000000000001,0.09964018668984567,0.101455427514854
0.141,0.1005146383727074,0.1013701516793844
0.1419999999999999,0.1023430373459636,0.1012888529197091
0.1429999999999998,0.1025020285610294,0.1012136891180599
0.1440000000000001,0.1020250549158321,0.1011452308097036
0.145,0.101389090055569,0.1010825182536126
0.1459999999999999,0.100753125195306,0.1010241826013198
0.1469999999999998,0.1006736295877731,0.1009691196872233
0.1480000000000001,0.1001966559425758,0.1009166281925894
0.149,0.1000376647275101,0.1008660823974388
0.1499999999999999,0.0995606910823128,0.1008168527519508
0.1509999999999998,0.0991632130446484,0.1007682312681431
0.1520000000000001,0.09892472622204976,0.1007195516947238
0.153,0.09749380528645793,0.1006698080383285
0.1539999999999999,0.09717582285632639,0.1006175249850282
0.1549999999999998,0.09797077893165521,0.1005623480816482
0.1560000000000001,0.09924270865218127,0.1005057749671719
0.157,0.09979917790491144,0.1004498615846334
0.1579999999999999,0.1008326208028389,0.1003963099010133
0.1589999999999998,0.102740515383628,0.1003472465488855
0.1600000000000001,0.1024225329534965,0.1003046607108603
0.161,0.1018660637007663,0.100268583565
0.1619999999999999,0.1009916120179046,0.1002375870942091
0.1629999999999998,0.1006736295877731,0.1002101680010248
0.1640000000000001,0.1003556471576416,0.1001852874596892
0.165,0.1001171603350429,0.1001622689143269
0.1659999999999999,0.09971968229737854,0.1001404732421988
0.1669999999999998,0.09924270865218127,0.100119145618489
0.1680000000000001,0.0991632130446484,0.1000976140836557
0.169,0.09860674379191825,0.1000753618527808
0.1699999999999999,0.09669884921112912,0.100050992295509
0.1709999999999998,0.0975733008939908,0.1000230073485985
0.1720000000000002,0.09828876136178671,0.09999194578544907
0.173,0.0994811954747799,0.09995972644964643
0.1739999999999999,0.1001171603350429,0.09992826819563172
0.1749999999999998,0.1015480812706348,0.09989944819428988
0.1760000000000002,0.1025815241685622,0.09987532900187678
0.177,0.1023430373459636,0.09985723084168638
0.1779999999999999,0.101389090055569,0.09984463338608311
0.1789999999999998,0.100753125195306,0.09983589663869852
0.1800000000000002,0.1006736295877731,0.09982970072621114
0.181,0.1001966559425758,0.09982529518302301
0.1819999999999999,0.09995816911997721,0.09982197159224734
0.1829999999999998,0.09971968229737854,0.09981910041562951
0.1840000000000002,0.0991632130446484,0.09981605137351431
0.1850000000000001,0.0991632130446484,0.09981219469567271
0.1859999999999999,0.09812977014672097,0.09980682625046663
0.1869999999999998,0.09669884921112912,0.09979837492656855
0.1880000000000002,0.0976527965015237,0.09978563686910995
0.1890000000000001,0.09884523061451689,0.09976969467401212
0.1899999999999999,0.09964018668984567,0.09975275016395732
0.1909999999999998,0.1005146383727074,0.09973664552601166
0.1920000000000002,0.1022635417384307,0.09972341389325023
0.1930000000000001,0.1024225329534965,0.09971507377226493
0.194,0.1020250549158321,0.09971214319205381
0.1949999999999998,0.101389090055569,0.0997136916113333
0.1960000000000002,0.1006736295877731,0.0997183039907921
0.1970000000000001,0.1005146383727074,0.09972472121758988
0.198,0.1001171603350429,0.09973213724566035
0.1989999999999998,0.09987867351244431,0.09973990702735917
0.2000000000000002,0.0994811954747799,0.09974738590219256
0.2010000000000001,0.0991632130446484,0.09975393080677432
0.202,0.09884523061451689,0.09975893943085737
0.2029999999999998,0.09749380528645793,0.09976139263093782
0.2040000000000002,0.09725531846385929,0.0997598816380221
0.2050000000000001,0.09797077893165521,0.0997541172376397
0.206,0.09924270865218127,0.0997455468882365
0.2069999999999999,0.09979917790491144,0.09973618209020446
0.2080000000000002,0.1008326208028389,0.09972772386556975
0.2090000000000001,0.102740515383628,0.09972230074327462
0.21,0.1024225329534965,0.0997219064678224
0.2109999999999999,0.1017070724857005,0.0997265032295556
0.2120000000000002,0.1009121164103718,0.09973456308519726
0.2130000000000001,0.1005941339802402,0.09974460602832073
0.214,0.1002761515501087,0.09975565618566355
0.2149999999999999,0.1000376647275101,0.09976706104669339
0.2160000000000002,0.09979917790491144,0.09977828300576237
0.2170000000000001,0.09932220425971416,0.0997887413382903
0.218,0.09924270865218127,0.09979785394707659
0.2189999999999999,0.09860674379191825,0.09980507658163562
0.2200000000000002,0.09677834481866202,0.09980898904746781
0.2210000000000001,0.09749380528645793,0.09980807342728946
0.222,0.09828876136178671,0.09980281414128866
0.2229999999999999,0.0995606910823128,0.09979519546491414
0.2240000000000002,0.1001171603350429,0.09978723804112857
0.2250000000000001,0.1015480812706348,0.09978080269844136
0.226,0.1026610197760951,0.099777976798989
0.2269999999999999,0.1023430373459636,0.0997801439793785
0.2280000000000002,0.1014685856631019,0.09978680742709484
0.2290000000000001,0.1008326208028389,0.09979638918021706
0.23,0.100753125195306,0.09980762944399736
0.2309999999999999,0.1001966559425758,0.09981975983421193
0.2320000000000002,0.1000376647275101,0.09983205682353806
0.2330000000000001,0.09971968229737854,0.09984391645267082
0.234,0.0991632130446484,0.09985469615089865
0.2349999999999999,0.09924270865218127,0.09986379435005918
0.2360000000000002,0.09805027453918808,0.09987053508363269
0.2370000000000001,0.09669884921112912,0.09987329927191906
0.238,0.09773229210905657,0.0998709537754786
0.2389999999999999,0.09892472622204976,0.09986472524011608
0.2400000000000002,0.0995606910823128,0.09985680001888787
0.2410000000000001,0.1005146383727074,0.09984893105024306
0.242,0.1022635417384307,0.09984318319325176
0.2429999999999999,0.1024225329534965,0.09984164421910592
0.2440000000000002,0.1019455593082992,0.09984482248550708
0.2450000000000001,0.1012300988405033,0.09985170364557477
0.246,0.1006736295877731,0.0998608714623722
0.2469999999999999,0.1005146383727074,0.09987121927499017
0.2480000000000002,0.1001171603350429,0.0998820474245936
0.2490000000000001,0.09995816911997721,0.09989277377379446
0.25,0.0995606910823128,0.09990285165438074
0.2509999999999999,0.0991632130446484,0.09991165469666345
0.2519999999999998,0.09884523061451689,0.09991852087982663
0.2530000000000001,0.09741430967892506,0.09992237573435703
0.254,0.09717582285632639,0.09992175938998449
0.2549999999999999,0.09805027453918808,0.09991644966481034
0.2559999999999998,0.09932220425971416,0.09990807189717088
0.2570000000000001,0.09979917790491144,0.09989869112289899
0.258,0.1009121164103718,0.09988998300963735
0.2589999999999999,0.1028200109911609,0.09988412876071814
0.2599999999999998,0.1023430373459636,0.09988309590511445
0.2610000000000001,0.1017865680932334,0.09988678438062899
0.262,0.1009121164103718,0.09989372234697894
0.2629999999999999,0.1006736295877731,0.09990248290987395
0.2639999999999998,0.1003556471576416,0.09991214039694132
0.2650000000000001,0.1001171603350429,0.09992208966764973
0.266,0.09979917790491144,0.09993176169147422
0.2669999999999999,0.09924270865218127,0.09994047035875105
0.2679999999999998,0.09924270865218127,0.0999475729775533
0.2690000000000001,0.09868623939945112,0.09995262096224616
0.27,0.09677834481866202,0.09995428430144455
0.2709999999999999,0.0975733008939908,0.0999510538939674
0.2719999999999998,0.09836825696931961,0.09994346058997101
0.2730000000000001,0.0995606910823128,0.09993349429581226
0.274,0.1001966559425758,0.09992314294773241
0.2749999999999999,0.1015480812706348,0.09991427476041553
0.2759999999999998,0.1025815241685622,0.09990890806418205
0.2770000000000001,0.1023430373459636,0.09990836185332329
0.278,0.1013095944480361,0.09991211694265482
0.2789999999999999,0.100753125195306,0.0999185367038299
0.2799999999999998,0.1005941339802402,0.09992634473826466
0.2810000000000001,0.1001966559425758,0.09993483362593635
0.282,0.1000376647275101,0.09994341355491172
0.2829999999999999,0.09971968229737854,0.09995156830095635
0.2839999999999998,0.0991632130446484,0.0999586616439623
0.2850000000000001,0.0991632130446484,0.0999640599236624
0.286,0.09805027453918808,0.09996705705199373
0.2869999999999999,0.09669884921112912,0.09996608178139378
0.2879999999999998,0.0976527965015237,0.0999600078758096
0.2890000000000001,0.09884523061451689,0.09994999240008934
0.29,0.0995606910823128,0.09993823249944593
0.2909999999999999,0.1005146383727074,0.09992656738677026
0.2919999999999998,0.1022635417384307,0.09991710487162984
0.2930000000000001,0.1023430373459636,0.09991189687234517
0.294,0.1018660637007663,0.0999113799564825
0.2949999999999999,0.1013095944480361,0.09991458645450967
0.2959999999999998,0.1006736295877731,0.09992021998407408
0.2970000000000002,0.1004351427651745,0.09992713411794193
0.298,0.1000376647275101,0.09993451560319357
0.2989999999999999,0.09987867351244431,0.09994175166128742
0.2999999999999998,0.0994811954747799,0.09994830494546454
0.3010000000000002,0.0991632130446484,0.09995359593074156
0.302,0.09876573500698399,0.09995700657847878
0.3029999999999999,0.09733481407139216,0.09995742758321989
0.3039999999999998,0.09717582285632639,0.09995340433057909
0.3050000000000002,0.09797077893165521,0.09994475754696397
0.306,0.09924270865218127,0.09993307670046775
0.3069999999999999,0.09987867351244431,0.09992046911010584
0.3079999999999998,0.1009916120179046,0.09990876408599789
0.3090000000000002,0.102740515383628,0.09990013463438242
0.3100000000000001,0.1024225329534965,0.0998964641147552
0.3109999999999999,0.1017865680932334,0.0998976871998509
0.3119999999999998,0.1009121164103718,0.09990232632751367
0.3130000000000002,0.100753125195306,0.0999089489096346
0.3140000000000001,0.1003556471576416,0.09991666163971802
0.3149999999999999,0.1000376647275101,0.09992477534487905
0.3159999999999998,0.09979917790491144,0.09993264184523529
0.3170000000000002,0.09924270865218127,0.09993961468765383
0.3180000000000001,0.09924270865218127,0.0999450883004124
0.319,0.09860674379191825,0.09994857271952756
0.3199999999999998,0.09669884921112912,0.09994866091491868
0.3210000000000002,0.0975733008939908,0.0999438475006751
0.3220000000000001,0.09836825696931961,0.09993474287703602
0.323,0.0995606910823128,0.09992337352052824
0.3239999999999998,0.1001171603350429,0.0999116854695867
0.3250000000000002,0.1015480812706348,0.09990150745290693
0.3260000000000001,0.1025815241685622,0.09989489670093732
0.327,0.1023430373459636,0.09989320862511461
0.3279999999999998,0.101389090055569,0.09989595805519651
0.3290000000000002,0.100753125195306,0.0999015400560555
0.3300000000000001,0.1005941339802402,0.0999086316357566
0.331,0.1001171603350429,0.09991644334969443
0.3319999999999999,0.09995816911997721,0.09992430825644742
0.3330000000000002,0.09964018668984567,0.09993167577078776
0.3340000000000001,0.09908371743711553,0.09993791555430971
0.335,0.0991632130446484,0.09994243762139939
0.3359999999999999,0.09805027453918808,0.09994461497798604
0.3370000000000002,0.09677834481866202,0.09994295056984041
0.3380000000000001,0.09773229210905657,0.09993638760858489
0.339,0.09900422182958263,0.09992614801577371
0.3399999999999999,0.09964018668984567,0.09991445133400853
0.3410000000000002,0.1004351427651745,0.09990300517686568
0.3420000000000001,0.1023430373459636,0.09989379343084283
0.343,0.1023430373459636,0.09988890362918304
0.3439999999999999,0.1019455593082992,0.09988880566729234
0.3450000000000002,0.1013095944480361,0.09989252496876787
0.3460000000000001,0.1006736295877731,0.09989872046089845
0.347,0.1005146383727074,0.09990624166247948
0.3479999999999999,0.1001171603350429,0.09991434747086425
