labs/lab1/data/Deg40.csv

#Digilent WaveForms Oscilloscope Acquisition
#Device Name: Discovery3
#Serial Number: SN:210415BC9AD6
#Date Time: 2025-02-14 19:20:52.548.490.650
#Sample rate: 1000Hz
#Samples: 5000
#Trigger: None
#Potentiometer: Range: 10 mV/div Offset: -30 mV Sample Mode: Average
#MovingAverage: Input: C1 Filter: Chebyshev Low-pass 2  Freq1: 1 Hz Epsilon: 0.01 


Time (s),Potentiometer (V),MovingAverage (V)
0,0.03111497299650341,1.488217329716417e-05
0.0009999999999998899,0.03087648617390477,7.336654549662677e-05
0.00199999999999978,0.03039951252870749,0.0001871250641455132
0.003000000000000114,0.03032001692117461,0.0003519824013466947
0.004000000000000004,0.02976354766844445,0.0005639564877544341
0.004999999999999893,0.0280146443027211,0.0008183799046801513
0.005999999999999783,0.0288096003780499,0.001110634746711166
0.007000000000000117,0.0296045564533787,0.001438173646504093
0.008000000000000007,0.03063799935130613,0.001799866870855655
0.008999999999999897,0.03119446860403629,0.002194587795533598
0.009999999999999787,0.03254589393209524,0.002621252894884712
0.01100000000000012,0.03342034561495692,0.003079087360508662
0.01200000000000001,0.0331023631848254,0.003566657315902328
0.0129999999999999,0.03238690271702949,0.004080999957134712
0.01399999999999979,0.03175093785676645,0.004618368247919921
0.01500000000000012,0.03167144224923357,0.00517535023753511
0.01600000000000001,0.03127396421156917,0.005749121441579394
0.0169999999999999,0.03111497299650341,0.006337072446674715
0.01799999999999979,0.03079699056637189,0.006936724825961311
0.01900000000000013,0.03024052131364173,0.007545575854155451
0.02000000000000002,0.03024052131364173,0.008161218835659581
0.02099999999999991,0.02928657402324718,0.008781341890362048
0.0219999999999998,0.02809413991025398,0.009403004205111698
0.02300000000000013,0.02896859159311566,0.01002374439879931
0.02400000000000002,0.02992253888351021,0.01064315312342842
0.02499999999999991,0.03063799935130613,0.01126179894394098
0.0259999999999998,0.03143295542663493,0.01188006534315518
0.02700000000000014,0.03318185879235828,0.01249873153974225
0.02800000000000002,0.03318185879235828,0.01311864283831764
0.02899999999999991,0.03278438075469389,0.01373918410980754
0.0299999999999998,0.03222791150196373,0.01435848353015215
0.03100000000000014,0.03167144224923357,0.01497444287177732
0.03200000000000003,0.03151245103416781,0.01558521150629345
0.03299999999999992,0.03119446860403629,0.01618936505431839
0.03399999999999981,0.03095598178143765,0.01678565414762997
0.03500000000000014,0.03063799935130613,0.01737288214747951
0.03600000000000003,0.03024052131364173,0.01794986621652727
0.03699999999999992,0.02992253888351021,0.01851543874565062
0.03799999999999981,0.02849161794791838,0.01906803041824392
0.03900000000000015,0.02849161794791838,0.01960584964386754
0.04000000000000004,0.02904808720064854,0.02012834430764613
0.04099999999999993,0.03039951252870749,0.02063662201285753
0.04199999999999982,0.03087648617390477,0.02113235880814073
0.04300000000000015,0.0319099290718322,0.02161696306462054
0.04400000000000004,0.03365883243755556,0.0220922353827171
0.04499999999999993,0.03318185879235828,0.02255977104339775
0.04599999999999982,0.03254589393209524,0.02301922036465858
0.04700000000000015,0.0319099290718322,0.02346905360648477
0.04800000000000004,0.03183043346429933,0.02390804223339235
0.04899999999999993,0.03135345981910205,0.02433539510336969
0.04999999999999982,0.03111497299650341,0.02475039127583383
0.05100000000000016,0.03095598178143765,0.0251524531820557
0.05200000000000005,0.03032001692117461,0.02554102497530513
0.05299999999999994,0.03032001692117461,0.02591549623321119
0.05399999999999983,0.02976354766844445,0.02627543456734369
0.05500000000000016,0.0280146443027211,0.02661966312386673
0.05600000000000005,0.0288096003780499,0.02694691630495051
0.05699999999999994,0.0296045564533787,0.02725790077975603
0.05799999999999983,0.03063799935130613,0.0275546423093217
0.05900000000000016,0.03111497299650341,0.02783903313273454
0.06000000000000005,0.03254589393209524,0.02811291248235391
0.06099999999999994,0.03334085000742404,0.02837837045634255
0.06199999999999983,0.0331023631848254,0.02863674023498188
0.06300000000000017,0.0323074071094966,0.028887728856363
0.06400000000000006,0.03175093785676645,0.02913016269399626
0.06499999999999995,0.03159194664170069,0.02936310769435023
0.06599999999999984,0.03119446860403629,0.02958608478180303
0.06700000000000017,0.03103547738897053,0.02979873902645242
0.06800000000000006,0.03079699056637189,0.03000083280063156
0.06899999999999995,0.03016102570610885,0.03019201099098986
0.06999999999999984,0.03024052131364173,0.0303718848418204
0.07100000000000017,0.0292070784157143,0.03054007275985187
0.07200000000000006,0.02809413991025398,0.03069547818384777
0.07299999999999995,0.02904808720064854,0.03083747567926548
0.07399999999999984,0.02992253888351021,0.03096740448501222
0.07500000000000018,0.03071749495883901,0.03108742029636679
0.07600000000000007,0.03143295542663493,0.03119941506158767
0.07699999999999996,0.03326135439989116,0.03130559968044316
0.07799999999999985,0.03318185879235828,0.03140817626781444
0.07900000000000018,0.03278438075469389,0.03150777555242747
0.08000000000000007,0.03222791150196373,0.03160370297745205
0.08099999999999996,0.03175093785676645,0.0316950469406455
0.08199999999999985,0.03151245103416781,0.03178107391475996
0.08300000000000018,0.03119446860403629,0.03186133312793685
0.08400000000000007,0.03103547738897053,0.03193552622535918
0.08499999999999996,0.03055850374377325,0.03200334651464545
0.08599999999999985,0.03032001692117461,0.03206440401295598
0.08700000000000019,0.02992253888351021,0.03211834530743526
0.08800000000000008,0.02865060916298414,0.03216439574608232
0.08899999999999997,0.02857111355545126,0.03220150051205083
0.08999999999999986,0.02912758280818142,0.03222971242638367
0.09100000000000019,0.03047900813624037,0.03225065704429281
0.09200000000000008,0.03095598178143765,0.03226652170703644
0.09299999999999997,0.0319099290718322,0.03227914279942256
0.09399999999999986,0.03357933683002268,0.03229063186151822
0.0950000000000002,0.03326135439989116,0.03230293662883273
0.09600000000000009,0.03262538953962812,0.03231617424376872
0.09699999999999998,0.0319099290718322,0.03232916020253472
0.09799999999999986,0.03175093785676645,0.03234082027985141
0.0990000000000002,0.03135345981910205,0.0323505281039812
0.1000000000000001,0.03111497299650341,0.03235781306050262
0.101,0.03087648617390477,0.03236227570977596
0.1019999999999999,0.03039951252870749,0.03236350819347956
0.1030000000000002,0.03032001692117461,0.03236109552508418
0.1040000000000001,0.02976354766844445,0.03235469286066351
0.105,0.0280146443027211,0.03234314739213369
0.1059999999999999,0.02873010477051702,0.03232519589278959
0.1070000000000002,0.02952506084584582,0.03230148901467209
0.1080000000000001,0.03055850374377325,0.03227401780353942
0.109,0.03111497299650341,0.03224469788312802
0.1099999999999999,0.03254589393209524,0.03221540838264384
0.1110000000000002,0.03342034561495692,0.03218825670996222
0.1120000000000001,0.0331023631848254,0.03216453408103704
0.113,0.0323074071094966,0.03214381194512327
0.1139999999999999,0.03167144224923357,0.03212473141739602
0.1150000000000002,0.03159194664170069,0.03210620292553953
0.1160000000000001,0.03127396421156917,0.03208769615508607
0.117,0.03103547738897053,0.03206878892911476
0.1179999999999999,0.03071749495883901,0.03204900937365168
0.1190000000000002,0.03024052131364173,0.032027801809425
0.1200000000000001,0.03024052131364173,0.03200468498297442
0.121,0.02912758280818142,0.03197905836538455
0.1219999999999999,0.02809413991025398,0.03194956414712121
0.1230000000000002,0.02896859159311566,0.03191539046379226
0.1240000000000001,0.0300020344910431,0.03187772274355252
0.125,0.03071749495883901,0.03183859380776644
0.1259999999999999,0.03143295542663493,0.03179968796076127
0.1269999999999998,0.03318185879235828,0.03176292922224664
0.1280000000000001,0.03318185879235828,0.03173027300842461
0.129,0.03278438075469389,0.03170217959039608
0.1299999999999999,0.0323074071094966,0.03167781787864726
0.1309999999999998,0.03175093785676645,0.03165609582385551
0.1320000000000001,0.03151245103416781,0.03163602052107244
0.133,0.03111497299650341,0.0316168461915998
0.1339999999999999,0.03095598178143765,0.03159798459045424
0.1349999999999998,0.03055850374377325,0.03157892054125308
0.1360000000000001,0.03024052131364173,0.03155909442698529
0.137,0.02992253888351021,0.03153794397602639
0.1379999999999999,0.02857111355545126,0.03151448725186151
0.1389999999999998,0.02849161794791838,0.03148742600614041
0.1400000000000001,0.02912758280818142,0.0314566121823724
0.141,0.03039951252870749,0.03142351081799882
0.1419999999999999,0.03087648617390477,0.03139007289045996
0.1429999999999998,0.0319099290718322,0.03135794169013321
0.1440000000000001,0.03357933683002268,0.0313291147020401
0.145,0.0331023631848254,0.03130530996265174
0.1459999999999999,0.03262538953962812,0.03128638276311789
0.1469999999999998,0.0319099290718322,0.03127104715766067
0.1480000000000001,0.03175093785676645,0.03125812627263895
0.149,0.03135345981910205,0.03124681410617935
0.1499999999999999,0.03111497299650341,0.03123646448520966
0.1509999999999998,0.03087648617390477,0.03122650657210732
0.1520000000000001,0.03032001692117461,0.03121632732460714
0.153,0.03032001692117461,0.03120531324854485
0.1539999999999999,0.02976354766844445,0.0311930036888137
0.1549999999999998,0.0280146443027211,0.03117813188832798
0.1560000000000001,0.02873010477051702,0.03115928461629067
0.157,0.02968405206091158,0.03113704300464644
0.1579999999999999,0.03055850374377325,0.03111332827427211
0.1589999999999998,0.03119446860403629,0.03108987200395988
0.1600000000000001,0.03254589393209524,0.03106837639850207
0.161,0.03334085000742404,0.03105074094648407
0.1619999999999999,0.03302286757729252,0.03103802022562471
0.1629999999999998,0.03238690271702949,0.03102971263320254
0.1640000000000001,0.03175093785676645,0.03102450202354701
0.165,0.03167144224923357,0.03102126014429976
0.1659999999999999,0.03127396421156917,0.03101930356687893
0.1669999999999998,0.03111497299650341,0.03101806386055991
0.1680000000000001,0.03079699056637189,0.0310170056668956
0.169,0.03032001692117461,0.03101551165266403
0.1699999999999999,0.03032001692117461,0.0310130027255722
0.1709999999999998,0.0292070784157143,0.03100878473523943
0.1720000000000002,0.02817363551778686,0.0310014103916078
0.173,0.02904808720064854,0.03098998241098555
0.1739999999999999,0.0300020344910431,0.03097556675834775
0.1749999999999998,0.03079699056637189,0.03096008306188899
0.1760000000000002,0.03143295542663493,0.03094514656186465
0.177,0.03326135439989116,0.03093261577871605
0.1779999999999999,0.03318185879235828,0.03092438410349083
0.1789999999999998,0.03278438075469389,0.03092081514196145
0.1800000000000002,0.03222791150196373,0.03092094878306829
0.181,0.03159194664170069,0.03092353380719302
0.1819999999999999,0.03151245103416781,0.03092750418907236
0.1829999999999998,0.03119446860403629,0.03093223607274687
0.1840000000000002,0.03095598178143765,0.03093721799250931
0.1850000000000001,0.03055850374377325,0.03094185492900113
0.1859999999999999,0.03024052131364173,0.03094551253300134
0.1869999999999998,0.02992253888351021,0.03094759676718699
0.1880000000000002,0.02849161794791838,0.03094705830819899
0.1890000000000001,0.02849161794791838,0.03094253620952436
0.1899999999999999,0.02904808720064854,0.03093386226348821
0.1909999999999998,0.03047900813624037,0.03092252136376238
0.1920000000000002,0.03095598178143765,0.030910559911654
0.1930000000000001,0.0319099290718322,0.03089963533769004
0.194,0.03365883243755556,0.03089168288162763
0.1949999999999998,0.03318185879235828,0.03088843878668597
0.1960000000000002,0.03262538953962812,0.03088973802563971
0.1970000000000001,0.0319099290718322,0.0308942001600564
0.198,0.03167144224923357,0.03090056036960906
0.1989999999999998,0.03135345981910205,0.03090796904577012
0.2000000000000002,0.03111497299650341,0.03091581616795538
0.2010000000000001,0.03087648617390477,0.03092356586313268
0.202,0.03039951252870749,0.03093063887081279
0.2029999999999998,0.03032001692117461,0.03093645430283117
0.2040000000000002,0.02976354766844445,0.03094050689827213
0.2050000000000001,0.02793514869518822,0.03094145086884408
0.206,0.02873010477051702,0.03093783780924424
0.2069999999999999,0.02968405206091158,0.03093029296587631
0.2080000000000002,0.03063799935130613,0.0309208180517049
0.2090000000000001,0.03119446860403629,0.03091118311205177
0.21,0.03262538953962812,0.03090308926560681
0.2109999999999999,0.0334998412224898,0.03089851182831689
0.2120000000000002,0.03318185879235828,0.03089861529065706
0.2130000000000001,0.0323074071094966,0.03090281163768955
0.214,0.03175093785676645,0.03090959009301973
0.2149999999999999,0.03167144224923357,0.03091779264202988
0.2160000000000002,0.03119446860403629,0.03092674696180175
0.2170000000000001,0.03103547738897053,0.03093582003023146
0.218,0.03079699056637189,0.03094449300065352
0.2189999999999999,0.03032001692117461,0.03095224120878019
0.2200000000000002,0.03024052131364173,0.03095849750660129
0.2210000000000001,0.02912758280818142,0.03096250383199561
0.222,0.02809413991025398,0.03096279191323122
0.2229999999999999,0.02896859159311566,0.03095848385382089
0.2240000000000002,0.0300020344910431,0.03095070289159219
0.2250000000000001,0.03071749495883901,0.03094142338554705
0.226,0.03151245103416781,0.03093231281402219
0.2269999999999999,0.03334085000742404,0.03092535553880751
0.2280000000000002,0.03326135439989116,0.03092252562749296
0.2290000000000001,0.03286387636222676,0.03092418675752832
0.23,0.0323074071094966,0.03092937921364539
0.2309999999999999,0.03167144224923357,0.03093685247573447
0.2320000000000002,0.03159194664170069,0.03094554150201623
0.2330000000000001,0.03119446860403629,0.03095478566245444
0.234,0.03103547738897053,0.03096403934041607
0.2349999999999999,0.03063799935130613,0.03097275194005291
0.2360000000000002,0.03032001692117461,0.03098033121901272
0.2370000000000001,0.02992253888351021,0.03098614694511973
0.238,0.02857111355545126,0.03098911615724944
0.2389999999999999,0.02865060916298414,0.03098796080496421
0.2400000000000002,0.0292070784157143,0.03098262884568238
0.2410000000000001,0.03055850374377325,0.03097460027921894
0.242,0.03095598178143765,0.0309658028989605
0.2429999999999999,0.03206892028689796,0.03095785904307667
0.2440000000000002,0.03365883243755556,0.03095274738107683
0.2450000000000001,0.03318185879235828,0.03095213115469561
0.246,0.03262538953962812,0.03095577716610775
0.2469999999999999,0.03183043346429933,0.0309622794973161
0.2480000000000002,0.03167144224923357,0.03097034997891917
0.2490000000000001,0.03127396421156917,0.03097915572182902
0.25,0.03111497299650341,0.03098810301104224
0.2509999999999999,0.03087648617390477,0.03099670988157609
0.2519999999999998,0.03032001692117461,0.03100441015691638
0.2530000000000001,0.03039951252870749,0.03101063567993289
0.254,0.02976354766844445,0.0310149696097254
0.2549999999999999,0.0280146443027211,0.03101611144413983
0.2559999999999998,0.0288096003780499,0.03101265547961639
0.2570000000000001,0.02968405206091158,0.03100522913236041
0.258,0.03063799935130613,0.03099576018261666
0.2589999999999999,0.03127396421156917,0.03098602548311177
0.2599999999999998,0.032704885147161,0.03097780879462218
0.2610000000000001,0.03342034561495692,0.03097304904433627
0.262,0.03318185879235828,0.030972800607825
0.2629999999999999,0.03238690271702949,0.03097652444187189
0.2639999999999998,0.03183043346429933,0.0309828320500424
0.2650000000000001,0.03175093785676645,0.03099060424008819
0.266,0.03127396421156917,0.03099916705912098
0.2669999999999999,0.03111497299650341,0.03100788587948754
0.2679999999999998,0.03071749495883901,0.03101616423009219
0.2690000000000001,0.03024052131364173,0.03102332855818985
0.27,0.03024052131364173,0.0310287862786034
0.2709999999999999,0.02912758280818142,0.03103186991151744
0.2719999999999998,0.02817363551778686,0.03103119651617098
0.2730000000000001,0.02896859159311566,0.03102593040820654
0.274,0.0300020344910431,0.03101715842830027
0.2749999999999999,0.03079699056637189,0.03100685882930093
0.2759999999999998,0.03143295542663493,0.03099670280307491
0.2770000000000001,0.03326135439989116,0.03098856418110538
0.278,0.03326135439989116,0.03098438950311264
0.2789999999999999,0.03278438075469389,0.03098459294427996
0.2799999999999998,0.03214841589443085,0.03098814837589199
0.2810000000000001,0.03167144224923357,0.03099378125425688
0.282,0.03159194664170069,0.03100055644858399
0.2829999999999999,0.03119446860403629,0.03100789748599691
0.2839999999999998,0.03095598178143765,0.03101522371972015
0.2850000000000001,0.03055850374377325,0.03102191367048818
0.286,0.03024052131364173,0.03102734671228639
0.2869999999999999,0.02992253888351021,0.0310309422305271
0.2879999999999998,0.02849161794791838,0.03103166401664097
0.2890000000000001,0.02857111355545126,0.0310282019469736
0.29,0.02912758280818142,0.03102047396263251
0.2909999999999999,0.03047900813624037,0.03100997005926681
0.2919999999999998,0.03095598178143765,0.03099866559459594
0.2930000000000001,0.03198942467936509,0.03098822764972083
0.294,0.03357933683002268,0.03098060085614285
0.2949999999999999,0.03326135439989116,0.03097749256526351
0.2959999999999998,0.03262538953962812,0.0309787870168751
0.2970000000000002,0.0319099290718322,0.03098311230078972
0.298,0.03175093785676645,0.03098921186083291
0.2989999999999999,0.03135345981910205,0.03099628211117538
0.2999999999999998,0.03111497299650341,0.03100368036911674
0.3010000000000002,0.03087648617390477,0.03101084028995735
0.302,0.03032001692117461,0.03101715425756062
0.3029999999999999,0.03032001692117461,0.03102201507016766
0.3039999999999998,0.02968405206091158,0.03102493114437602
0.3050000000000002,0.0280146443027211,0.03102460791109956
0.306,0.02873010477051702,0.03101968335311114
0.3069999999999999,0.02968405206091158,0.03101078791009026
0.3079999999999998,0.03055850374377325,0.03099985220351059
0.3090000000000002,0.03127396421156917,0.03098865575068936
0.3100000000000001,0.032704885147161,0.03097902282840751
0.3109999999999999,0.03342034561495692,0.03097293033771368
0.3119999999999998,0.03318185879235828,0.03097143014483377
0.3130000000000002,0.03238690271702949,0.03097398069431388
0.3140000000000001,0.03175093785676645,0.03097915295712475
0.3149999999999999,0.03167144224923357,0.03098575156944592
0.3159999999999998,0.03119446860403629,0.03099306911800177
0.3170000000000002,0.03111497299650341,0.03100051572433389
0.3180000000000001,0.03087648617390477,0.03100765107387137
0.319,0.03024052131364173,0.03101391003847861
0.3199999999999998,0.03024052131364173,0.03101861132073647
0.3210000000000002,0.02912758280818142,0.03102100381913768
0.3220000000000001,0.02817363551778686,0.03101970195820489
0.323,0.02904808720064854,0.03101390548105764
0.3239999999999998,0.0300020344910431,0.03100473432144804
0.3250000000000002,0.03079699056637189,0.03099412152414191
0.3260000000000001,0.03159194664170069,0.03098377169267728
0.327,0.03334085000742404,0.03097566586210213
0.3279999999999998,0.03326135439989116,0.03097169875641025
0.3290000000000002,0.03286387636222676,0.03097219751796167
0.3300000000000001,0.03222791150196373,0.03097616815839403
0.331,0.03175093785676645,0.03098236609745522
0.3319999999999999,0.03159194664170069,0.03098980802056825
0.3330000000000002,0.03119446860403629,0.03099783397378291
0.3340000000000001,0.03103547738897053,0.03100586089785208
0.335,0.03055850374377325,0.03101330303948719
0.3359999999999999,0.03032001692117461,0.03101953521286622
0.3370000000000002,0.02992253888351021,0.03102397243008318
0.3380000000000001,0.02849161794791838,0.03102553627035981
0.339,0.02857111355545126,0.0310228769549867
0.3399999999999999,0.02912758280818142,0.03101591327053847
0.3410000000000002,0.03055850374377325,0.03100617410292155
0.3420000000000001,0.03087648617390477,0.03099563332029087
0.343,0.03198942467936509,0.03098588056156481
