labs/lab1/data/Deg80.csv

#Digilent WaveForms Oscilloscope Acquisition
#Device Name: Discovery3
#Serial Number: SN:210415BC9AD6
#Date Time: 2025-02-14 19:23:23.254.248.630
#Sample rate: 1000Hz
#Samples: 5000
#Trigger: None
#Potentiometer: Range: 10 mV/div Offset: -30 mV Sample Mode: Average
#MovingAverage: Input: C1 Filter: Chebyshev Low-pass 2  Freq1: 1 Hz Epsilon: 0.01 


Time (s),Potentiometer (V),MovingAverage (V)
0,0.01927012747410434,9.216828713310881e-06
0.0009999999999998899,0.0186341626138413,4.520383923025307e-05
0.00199999999999978,0.01696475485565083,0.0001140800470578248
0.003000000000000114,0.01775971093097962,0.0002121998658720828
0.004000000000000004,0.0186341626138413,0.0003379837834406273
0.004999999999999893,0.01958810990423586,0.0004911878315145181
0.005999999999999783,0.0202240747644989,0.0006714923401655984
0.007000000000000117,0.02157550009255785,0.0008786212038610472
0.008000000000000007,0.02229096056035377,0.001112491859749496
0.008999999999999897,0.02213196934528801,0.001372291179253623
0.009999999999999787,0.02125751766242633,0.001655722820793273
0.01100000000000012,0.02070104840969617,0.001959633812339481
0.01200000000000001,0.0206215528021633,0.002281213164550793
0.0129999999999999,0.02030357037203178,0.002618280706242643
0.01399999999999979,0.02006508354943314,0.002968796762107055
0.01500000000000012,0.01966760551176874,0.00333070545209951
0.01600000000000001,0.01919063186657146,0.003701901584387295
0.0169999999999999,0.01919063186657146,0.00408046580588297
0.01799999999999979,0.01807769336111115,0.004464466901439587
0.01900000000000013,0.01712374607071659,0.004851319825987238
0.02000000000000002,0.01807769336111115,0.005239123032229231
0.02099999999999991,0.01911113625903858,0.005628027523070651
0.0219999999999998,0.0198265967268345,0.006019009538215367
0.02300000000000013,0.0206215528021633,0.006412754052909648
0.02400000000000002,0.02221146495282089,0.006810203430712466
0.02499999999999991,0.02213196934528801,0.007212235844563587
0.0259999999999998,0.02173449130762361,0.007618298678112286
0.02700000000000014,0.02117802205489345,0.008026686393418357
0.02800000000000002,0.02070104840969617,0.008435526193713756
0.02899999999999991,0.02046256158709753,0.008843171966044583
0.0299999999999998,0.0202240747644989,0.009248345784711046
0.03100000000000014,0.01998558794190026,0.009649965956337504
0.03200000000000003,0.01966760551176874,0.01004698510904147
0.03299999999999992,0.01927012747410434,0.01043831407175762
0.03399999999999981,0.01895214504397282,0.01082286451338067
0.03500000000000014,0.01752122410838099,0.01119913272723529
0.03600000000000003,0.01760071971591387,0.01156541778985469
0.03699999999999992,0.01815718896864402,0.01192128161858502
0.03799999999999981,0.01950861429670298,0.01226789153529631
0.03900000000000015,0.01998558794190026,0.01260693217044652
0.04000000000000004,0.02101903083982769,0.01293981044484789
0.04099999999999993,0.02252944738295241,0.01326820201980403
0.04199999999999982,0.02213196934528801,0.01359349949261137
0.04300000000000015,0.02149600448502497,0.01391530598641569
0.04400000000000004,0.02086003962476193,0.0142321146787871
0.04499999999999993,0.02070104840969617,0.01454263368218912
0.04599999999999982,0.02030357037203178,0.01484600362650139
0.04700000000000015,0.02014457915696602,0.01514154496031899
0.04800000000000004,0.01990609233436738,0.01542871033262836
0.04899999999999993,0.01927012747410434,0.01570684949472739
0.04999999999999982,0.01934962308163722,0.01597529282427537
0.05100000000000016,0.0186341626138413,0.01623354389264118
0.05200000000000005,0.01688525924811795,0.01648024331403522
0.05299999999999994,0.01775971093097962,0.01671402210835497
0.05399999999999983,0.01871365822137418,0.01693567218126353
0.05500000000000016,0.01958810990423586,0.01714725342202758
0.05600000000000005,0.0202240747644989,0.01735056807638522
0.05699999999999994,0.02157550009255785,0.01754740104484156
0.05799999999999983,0.02237045616788665,0.01773974565336275
0.05900000000000016,0.02205247373775513,0.01792876060405391
0.06000000000000005,0.02125751766242633,0.01811398183813507
0.06099999999999994,0.02070104840969617,0.01829410615846501
0.06199999999999983,0.0206215528021633,0.01846814722116591
0.06300000000000017,0.0202240747644989,0.01863560833540189
0.06400000000000006,0.02006508354943314,0.01879607351887125
0.06499999999999995,0.01974710111930162,0.01894916538074609
0.06599999999999984,0.01919063186657146,0.01909439141550303
0.06700000000000017,0.01911113625903858,0.01923122796545123
0.06800000000000006,0.01799819775357827,0.01935904706539693
0.06899999999999995,0.01704425046318371,0.01947659165033596
0.06999999999999984,0.01791870214604539,0.01958323279894572
0.07100000000000017,0.01895214504397282,0.01968030168283751
0.07200000000000006,0.01966760551176874,0.01976994164246807
0.07299999999999995,0.02054205719463041,0.0198540282671869
0.07399999999999984,0.02221146495282089,0.01993471434524499
0.07500000000000018,0.02213196934528801,0.0200140287236718
0.07600000000000007,0.02165499570009073,0.02009239706126716
0.07699999999999996,0.02109852644736057,0.02016896629348544
0.07799999999999985,0.0206215528021633,0.02024271035442874
0.07900000000000018,0.02046256158709753,0.02031286086986834
0.08000000000000007,0.02014457915696602,0.02037896905752087
0.08099999999999996,0.01990609233436738,0.02044065908545574
0.08199999999999985,0.01950861429670298,0.0204975103034264
0.08300000000000018,0.01919063186657146,0.02054906076344168
0.08400000000000007,0.01879315382890706,0.02059484862847064
0.08499999999999996,0.01736223289331523,0.02063391875753334
0.08599999999999985,0.01752122410838099,0.02066512058185485
0.08700000000000019,0.01815718896864402,0.02068864304597707
0.08800000000000008,0.01950861429670298,0.02070623725850754
0.08899999999999997,0.01998558794190026,0.02072005385448195
0.08999999999999986,0.02101903083982769,0.02073189224494697
0.09100000000000019,0.02244995177541953,0.0207437507707284
0.09200000000000008,0.02213196934528801,0.02075731653315771
0.09299999999999997,0.02149600448502497,0.02077253617263696
0.09399999999999986,0.02078054401722906,0.02078817770268998
0.0950000000000002,0.02070104840969617,0.02080315902631172
0.09600000000000009,0.0202240747644989,0.0208168451034003
0.09699999999999998,0.02006508354943314,0.02082871789694143
0.09799999999999986,0.0198265967268345,0.02083837027439894
0.0990000000000002,0.01934962308163722,0.02084538599911645
0.1000000000000001,0.01934962308163722,0.02084934107835558
0.101,0.0186341626138413,0.02084984306693689
0.1019999999999999,0.01696475485565083,0.02084561736775976
0.1030000000000002,0.01775971093097962,0.02083539961797004
0.1040000000000001,0.0186341626138413,0.02081995267758455
0.105,0.01966760551176874,0.02080133397194352
0.1059999999999999,0.02030357037203178,0.02078148232592358
0.1070000000000002,0.02157550009255785,0.02076222144097392
0.1080000000000001,0.02229096056035377,0.02074541547151375
0.109,0.02205247373775513,0.02073212651321782
0.1099999999999999,0.02125751766242633,0.02072190072245
0.1110000000000002,0.02070104840969617,0.02071343137908762
0.1120000000000001,0.0206215528021633,0.02070567769489636
0.113,0.0202240747644989,0.02069807882548528
0.1139999999999999,0.02006508354943314,0.02069014563686803
0.1150000000000002,0.01966760551176874,0.02068138125115379
0.1160000000000001,0.01927012747410434,0.02067120642155934
0.117,0.01919063186657146,0.02065911772157112
0.1179999999999999,0.01799819775357827,0.02064441775671163
0.1190000000000002,0.01712374607071659,0.02062569593801265
0.1200000000000001,0.01791870214604539,0.02060220518226878
0.121,0.01911113625903858,0.02057519194461411
0.1219999999999999,0.01974710111930162,0.02054674642990802
0.1230000000000002,0.0206215528021633,0.02051860679347322
0.1240000000000001,0.02229096056035377,0.02049274748453386
0.125,0.02213196934528801,0.02047101894837554
0.1259999999999999,0.02165499570009073,0.02045363070202327
0.1269999999999998,0.02109852644736057,0.02043955454440258
0.1280000000000001,0.0206215528021633,0.02042762812872014
0.129,0.02046256158709753,0.02041694553933887
0.1299999999999999,0.02006508354943314,0.02040688150914285
0.1309999999999998,0.01990609233436738,0.0203968854978193
0.1320000000000001,0.01950861429670298,0.02038644019470622
0.133,0.01927012747410434,0.02037502247256735
0.1339999999999999,0.01879315382890706,0.02036206671848755
0.1349999999999998,0.01736223289331523,0.02034643617619704
0.1360000000000001,0.01752122410838099,0.0203268019312506
0.137,0.01807769336111115,0.02030317799524318
0.1379999999999999,0.01950861429670298,0.02027714408446187
0.1389999999999998,0.01998558794190026,0.02025075914052067
0.1400000000000001,0.02101903083982769,0.02022572988115913
0.141,0.02252944738295241,0.02020396119194636
0.1419999999999999,0.02213196934528801,0.02018704618198385
0.1429999999999998,0.02141650887749209,0.02017472310750091
0.1440000000000001,0.02078054401722906,0.02016555860348202
0.145,0.0206215528021633,0.02015835220569973
0.1459999999999999,0.0202240747644989,0.02015235266968209
0.1469999999999998,0.02014457915696602,0.02014700405306513
0.1480000000000001,0.0198265967268345,0.02014185890011258
0.149,0.01927012747410434,0.02013630636698831
0.1499999999999999,0.01927012747410434,0.02012969735825503
0.1509999999999998,0.0186341626138413,0.0201215381988521
0.1520000000000001,0.01688525924811795,0.02011049357737451
0.153,0.01775971093097962,0.02009520054848368
0.1539999999999999,0.01871365822137418,0.02007640207209705
0.1549999999999998,0.01958810990423586,0.02005609555884395
0.1560000000000001,0.02030357037203178,0.02003604620494001
0.157,0.02157550009255785,0.02001798779805411
0.1579999999999999,0.02229096056035377,0.02000373537061637
0.1589999999999998,0.02205247373775513,0.01999426426543039
0.1600000000000001,0.02117802205489345,0.01998899870131903
0.161,0.0206215528021633,0.01998647720125168
0.1619999999999999,0.02046256158709753,0.01998551170793703
0.1629999999999998,0.02014457915696602,0.01998543944626835
0.1640000000000001,0.02006508354943314,0.01998578818254021
0.165,0.01966760551176874,0.01998611349238968
0.1659999999999999,0.01919063186657146,0.01998576979132651
0.1669999999999998,0.01911113625903858,0.01998411387137643
0.1680000000000001,0.01791870214604539,0.01998035389792678
0.169,0.01712374607071659,0.01997306563889594
0.1699999999999999,0.01799819775357827,0.01996156429522385
0.1709999999999998,0.01911113625903858,0.01994711574615645
0.1720000000000002,0.01974710111930162,0.019931713275662
0.173,0.02054205719463041,0.01991696505338292
0.1739999999999999,0.02229096056035377,0.01990476077521553
0.1749999999999998,0.02213196934528801,0.01989694680923592
0.1760000000000002,0.02165499570009073,0.01989372834574492
0.177,0.02109852644736057,0.01989403460837988
0.1779999999999999,0.02070104840969617,0.01989670087050527
0.1789999999999998,0.02046256158709753,0.01990081857856581
0.1800000000000002,0.02014457915696602,0.01990572156768965
0.181,0.01990609233436738,0.01991082055900697
0.1819999999999999,0.01958810990423586,0.01991556160577955
0.1829999999999998,0.01927012747410434,0.01991938698987169
0.1840000000000002,0.01879315382890706,0.01992166047245414
0.1850000000000001,0.01736223289331523,0.01992117897743095
0.1859999999999999,0.01760071971591387,0.01991662748747499
0.1869999999999998,0.0182366845761769,0.01990810924093798
0.1880000000000002,0.01950861429670298,0.01989721168542705
0.1890000000000001,0.01998558794190026,0.01988584887693996
0.1899999999999999,0.02109852644736057,0.01987566769031953
0.1909999999999998,0.02252944738295241,0.0198685931723212
0.1920000000000002,0.02205247373775513,0.01986612359868924
0.1930000000000001,0.02141650887749209,0.01986790861458809
0.194,0.02078054401722906,0.01987254632607063
0.1949999999999998,0.02070104840969617,0.01987890444067117
0.1960000000000002,0.02030357037203178,0.01988629620962916
0.1970000000000001,0.02006508354943314,0.01989411254225155
0.198,0.0198265967268345,0.01990178044316497
0.1989999999999998,0.01927012747410434,0.01990868587653996
0.2000000000000002,0.01934962308163722,0.01991425347263902
0.2010000000000001,0.01855466700630842,0.01991798330814939
0.202,0.01688525924811795,0.01991845870740921
0.2029999999999998,0.01775971093097962,0.0199143170419054
0.2040000000000002,0.01871365822137418,0.01990634029697475
0.2050000000000001,0.01950861429670298,0.01989648712971943
0.206,0.0202240747644989,0.01988644901346164
0.2069999999999999,0.02157550009255785,0.01987796737095972
0.2080000000000002,0.02229096056035377,0.01987294128325072
0.2090000000000001,0.02197297813022225,0.01987234967441735
0.21,0.02117802205489345,0.019875582768717
0.2109999999999999,0.0206215528021633,0.0198812239279855
0.2120000000000002,0.0206215528021633,0.01988820390455734
0.2130000000000001,0.02014457915696602,0.019895933926823
0.214,0.01998558794190026,0.01990382144207983
0.2149999999999999,0.01966760551176874,0.01991130950181236
0.2160000000000002,0.01919063186657146,0.01991779962497455
0.2170000000000001,0.01911113625903858,0.01992269348214728
0.218,0.01791870214604539,0.01992520391888822
0.2189999999999999,0.01712374607071659,0.01992391163420015
0.2200000000000002,0.01799819775357827,0.01991813698638289
0.2210000000000001,0.01911113625903858,0.01990915121473917
0.222,0.01974710111930162,0.01989895314345335
0.2229999999999999,0.0206215528021633,0.01988919466347339
0.2240000000000002,0.02229096056035377,0.01988180695342345
0.2250000000000001,0.02213196934528801,0.01987859963691367
0.226,0.02173449130762361,0.01987978181037661
0.2269999999999999,0.02109852644736057,0.01988432478349728
0.2280000000000002,0.02070104840969617,0.01989102763424265
0.2290000000000001,0.02054205719463041,0.01989898621224301
0.23,0.0202240747644989,0.01990761490836111
0.2309999999999999,0.01998558794190026,0.01991636231610843
0.2320000000000002,0.01958810990423586,0.0199246341692497
0.2330000000000001,0.01934962308163722,0.01993183509831841
0.234,0.01887264943643994,0.01993736983657556
0.2349999999999999,0.01736223289331523,0.01994003599354715
0.2360000000000002,0.01760071971591387,0.01993844336844493
0.2370000000000001,0.0182366845761769,0.01993266295552359
0.238,0.01950861429670298,0.01992429035745423
0.2389999999999999,0.02006508354943314,0.01991528572088409
0.2400000000000002,0.02109852644736057,0.01990733953756681
0.2410000000000001,0.02244995177541953,0.01990230399653333
0.242,0.02213196934528801,0.01990164732809094
0.2429999999999999,0.02149600448502497,0.01990514347488563
0.2440000000000002,0.02086003962476193,0.01991146948096702
0.2450000000000001,0.02070104840969617,0.01991945318499862
0.246,0.02030357037203178,0.01992833248271449
0.2469999999999999,0.02014457915696602,0.01993750380309816
0.2480000000000002,0.01990609233436738,0.01994647563447187
0.2490000000000001,0.01927012747410434,0.01995463454002008
0.25,0.01919063186657146,0.01996125371947557
0.2509999999999999,0.01855466700630842,0.0199657294035905
0.2519999999999998,0.01688525924811795,0.01996673806046526
0.2530000000000001,0.01775971093097962,0.01996300496808283
0.254,0.01871365822137418,0.01995531888527657
0.2549999999999999,0.01958810990423586,0.01994568308025132
0.2559999999999998,0.02030357037203178,0.01993586909692857
0.2570000000000001,0.02157550009255785,0.01992761751896908
0.258,0.02221146495282089,0.01992271256046771
0.2589999999999999,0.02197297813022225,0.01992206346975625
0.2599999999999998,0.02117802205489345,0.01992510942639172
0.2610000000000001,0.0206215528021633,0.0199304800291488
0.262,0.02054205719463041,0.01993707358030034
0.2629999999999999,0.02014457915696602,0.01994427104616452
0.2639999999999998,0.01998558794190026,0.01995152777016895
0.2650000000000001,0.01958810990423586,0.0199582939631838
0.266,0.01919063186657146,0.01996394002153431
0.2669999999999999,0.0190316406515057,0.01996787663528313
0.2679999999999998,0.01783920653851251,0.01996928731703303
0.2690000000000001,0.01712374607071659,0.01996676350536308
0.27,0.01791870214604539,0.01995967392195232
0.2709999999999999,0.01911113625903858,0.01994929737605853
0.2719999999999998,0.0198265967268345,0.01993771599311678
0.2730000000000001,0.0206215528021633,0.01992665990343879
0.274,0.02237045616788665,0.01991805757526099
0.2749999999999999,0.02213196934528801,0.01991371592725465
0.2759999999999998,0.02173449130762361,0.01991380333876049
0.2770000000000001,0.02101903083982769,0.01991721477145461
0.278,0.0206215528021633,0.01992267765194238
0.2789999999999999,0.02038306597956466,0.01992922072763736
0.2799999999999998,0.02006508354943314,0.01993619568906204
0.2810000000000001,0.0198265967268345,0.01994303070694418
0.282,0.0194291186891701,0.01994915084710268
0.2829999999999999,0.01919063186657146,0.01995397935859869
0.2839999999999998,0.01871365822137418,0.01995693888730769
0.2850000000000001,0.01720324167824947,0.01995684425795975
0.286,0.01752122410838099,0.01995235981932897
0.2869999999999999,0.01815718896864402,0.01994364608296011
0.2879999999999998,0.0194291186891701,0.01993234480152
0.2890000000000001,0.01990609233436738,0.01992038342143789
0.29,0.02101903083982769,0.01990942176939416
0.2909999999999999,0.02237045616788665,0.01990135938473698
0.2919999999999998,0.02205247373775513,0.01989770900067901
0.2930000000000001,0.02141650887749209,0.0198982482803042
0.294,0.02078054401722906,0.01990165769216013
0.2949999999999999,0.0206215528021633,0.01990676821484864
0.2959999999999998,0.02014457915696602,0.01991278258827077
0.2970000000000002,0.01998558794190026,0.01991902617758708
0.298,0.01966760551176874,0.01992494083355026
0.2989999999999999,0.01911113625903858,0.01992988878976476
0.2999999999999998,0.01911113625903858,0.01993323475217859
0.3010000000000002,0.01839567579124266,0.01993446103210897
0.302,0.01672626803305219,0.0199322108492995
0.3029999999999999,0.01768021532344675,0.01992521628854808
0.3039999999999998,0.0186341626138413,0.01991434855296971
0.3050000000000002,0.01950861429670298,0.01990165018421307
0.306,0.0202240747644989,0.01988889136958586
0.3069999999999999,0.02165499570009073,0.01987788723797718
0.3079999999999998,0.02221146495282089,0.01987052968623499
0.3090000000000002,0.02181398691515649,0.01986763843430423
0.3100000000000001,0.02117802205489345,0.01986853013323271
0.3109999999999999,0.0206215528021633,0.01987190922190668
0.3119999999999998,0.02054205719463041,0.019876743996427
0.3130000000000002,0.02014457915696602,0.01988240468550354
0.3140000000000001,0.01998558794190026,0.01988833612084915
0.3149999999999999,0.01958810990423586,0.01989397823393664
0.3159999999999998,0.01927012747410434,0.01989872940204839
0.3170000000000002,0.01911113625903858,0.01990206418465098
0.3180000000000001,0.01783920653851251,0.01990314948800982
0.319,0.01720324167824947,0.01990052259924311
0.3199999999999998,0.01799819775357827,0.01989357698942608
0.3210000000000002,0.01911113625903858,0.01988357622240794
0.3220000000000001,0.01974710111930162,0.01987247359115603
0.323,0.0206215528021633,0.01986191602550183
0.3239999999999998,0.02229096056035377,0.01985382984176815
0.3250000000000002,0.02205247373775513,0.01984998188094734
0.3260000000000001,0.02173449130762361,0.0198505409386075
0.327,0.02101903083982769,0.01985447845449538
0.3279999999999998,0.0206215528021633,0.01986055557252591
0.3290000000000002,0.02038306597956466,0.01986779452322329
0.3300000000000001,0.02014457915696602,0.01987557874136063
0.331,0.0198265967268345,0.01988336600145406
0.3319999999999999,0.0194291186891701,0.0198905328608149
0.3330000000000002,0.01927012747410434,0.01989649484103803
0.3340000000000001,0.01879315382890706,0.01990074320769322
0.335,0.01720324167824947,0.01990208090506076
0.3359999999999999,0.01760071971591387,0.0198991228243754
0.3370000000000002,0.0182366845761769,0.01989205888148982
0.3380000000000001,0.0194291186891701,0.01988252019302166
0.339,0.01990609233436738,0.01987234795312779
0.3399999999999999,0.02109852644736057,0.01986319695674273
0.3410000000000002,0.02237045616788665,0.01985699999764735
0.3420000000000001,0.02205247373775513,0.01985522489876282
0.343,0.02133701326995921,0.01985756909289329
