labs/lab1/data/Deg90.csv

#Digilent WaveForms Oscilloscope Acquisition
#Device Name: Discovery3
#Serial Number: SN:210415BC9AD6
#Date Time: 2025-02-14 19:33:53.212.481.690
#Sample rate: 1000Hz
#Samples: 5000
#Trigger: None
#Potentiometer: Range: 10 mV/div Offset: -30 mV Sample Mode: Average
#MovingAverage: Input: C1 Filter: Chebyshev Low-pass 2  Freq1: 1 Hz Epsilon: 0.01 


Time (s),Potentiometer (V),MovingAverage (V)
0,0.01171804475848077,5.604696260518512e-06
0.0009999999999998899,0.01251300083380957,2.805336788439951e-05
0.00199999999999978,0.01354644373173701,7.314184671444549e-05
0.003000000000000114,0.01410291298446716,0.0001410469801789244
0.004000000000000004,0.01537484270499324,0.0002318912450412633
0.004999999999999893,0.01624929438785491,0.0003460119647664097
0.005999999999999783,0.01601080756525627,0.0004831111517375426
0.007000000000000117,0.01521585148992748,0.0006413440126620634
0.008000000000000007,0.01465938223719732,0.0008179865430088626
0.008999999999999897,0.01465938223719732,0.001010672710131125
0.009999999999999787,0.01426190419953292,0.001217605423655455
0.01100000000000012,0.01402341737693428,0.001437031207160328
0.01200000000000001,0.01370543494680276,0.001667202887849831
0.0129999999999999,0.01322846130160549,0.00190638255741931
0.01399999999999979,0.01322846130160549,0.002152958403123498
0.01500000000000012,0.01211552279614517,0.002405250038677413
0.01600000000000001,0.01100258429068486,0.002660831470451598
0.0169999999999999,0.01187703597354653,0.002917835659630881
0.01799999999999979,0.01298997447900685,0.003176521167488191
0.01900000000000013,0.01378493055433564,0.003438154277101554
0.02000000000000002,0.01450039102213156,0.003703690767316466
0.02099999999999991,0.01601080756525627,0.003974173123432648
0.0219999999999998,0.01624929438785491,0.004250685266244377
0.02300000000000013,0.01577232074265764,0.004533055204233672
0.02400000000000002,0.0151363558823946,0.004819741351953648
0.02499999999999991,0.01457988662966444,0.005108831008284649
0.0259999999999998,0.01450039102213156,0.005398750907630783
0.02700000000000014,0.01410291298446716,0.005688363729386759
0.02800000000000002,0.0139439217694014,0.005976639678448068
0.02899999999999991,0.01354644373173701,0.00626257589513548
0.0299999999999998,0.01322846130160549,0.006545158719357687
0.03100000000000014,0.01291047887147397,0.006823404306921259
0.03200000000000003,0.01155905354341501,0.007095940458301427
0.03299999999999992,0.01132056672081638,0.007361032776294648
0.03399999999999981,0.01211552279614517,0.007618130829518313
0.03500000000000014,0.01322846130160549,0.007868405822712058
0.03600000000000003,0.01386442616186852,0.008113541383020808
0.03699999999999992,0.0147388778447302,0.00835493883975718
0.03799999999999981,0.01640828560292067,0.008594301985703053
0.03900000000000015,0.01616979878032204,0.008833197242696664
0.04000000000000004,0.015533833920059,0.009071462045802076
0.04099999999999993,0.01481837345226308,0.009307614101241103
0.04199999999999982,0.01457988662966444,0.009540226954119787
0.04300000000000015,0.0143413998070658,0.009768385603462222
0.04400000000000004,0.01402341737693428,0.009991429126818708
0.04499999999999993,0.01386442616186852,0.01020874643676551
0.04599999999999982,0.01338745251667125,0.01041973640790435
0.04700000000000015,0.01330795690913836,0.01062380842333856
0.04800000000000004,0.01275148765640821,0.01082042089037688
0.04899999999999993,0.01092308868315198,0.01100820478987024
0.04999999999999982,0.01163854915094789,0.01118566281473137
0.05100000000000016,0.01235400961874381,0.0113532332203952
0.05200000000000005,0.01354644373173701,0.0115127914771376
0.05299999999999994,0.01410291298446716,0.01166626683107071
0.05399999999999983,0.01529534709746036,0.01181540721974557
0.05500000000000016,0.01632878999538779,0.01196209109375866
0.05600000000000005,0.01601080756525627,0.01210759348786802
0.05699999999999994,0.01521585148992748,0.01225151749429815
0.05799999999999983,0.01465938223719732,0.01239250469203545
0.05900000000000016,0.01457988662966444,0.01252951272671338
0.06000000000000005,0.01418240859200004,0.01266198826521956
0.06099999999999994,0.01402341737693428,0.01278945819784343
0.06199999999999983,0.01378493055433564,0.01291152568236003
0.06300000000000017,0.01322846130160549,0.01302771419211238
0.06400000000000006,0.01322846130160549,0.01313751127863666
0.06499999999999995,0.01227451401121093,0.01324037172878871
0.06599999999999984,0.01092308868315198,0.01333496014431607
0.06700000000000017,0.01195653158107941,0.01342034205123475
0.06800000000000006,0.01298997447900685,0.01349774844888274
0.06899999999999995,0.01362593933926988,0.01356930156519871
0.06999999999999984,0.01442089541459868,0.01363670205188514
0.07100000000000017,0.01601080756525627,0.01370189765744016
0.07200000000000006,0.01616979878032204,0.01376687441559363
0.07299999999999995,0.01569282513512476,0.01383220567260682
0.07399999999999984,0.01521585148992748,0.0138971365915835
0.07500000000000018,0.01465938223719732,0.01396061663863166
0.07600000000000007,0.01457988662966444,0.01402181380229073
0.07699999999999996,0.01418240859200004,0.0140802170114562
0.07799999999999985,0.01402341737693428,0.01413538953125659
0.07900000000000018,0.01362593933926988,0.01418688924937905
0.08000000000000007,0.01322846130160549,0.01423419380290451
0.08099999999999996,0.01291047887147397,0.01427674446293766
0.08199999999999985,0.01163854915094789,0.01431364522762008
0.08300000000000018,0.01140006232834925,0.01434368497336569
0.08400000000000007,0.01211552279614517,0.01436672767485357
0.08499999999999996,0.01322846130160549,0.01438425587924423
0.08599999999999985,0.01386442616186852,0.01439828120922175
0.08700000000000019,0.0147388778447302,0.01441054800611903
0.08800000000000008,0.01640828560292067,0.01442307850257614
0.08899999999999997,0.01601080756525627,0.01443765782291011
0.08999999999999986,0.015533833920059,0.01445432403728918
0.09100000000000019,0.01481837345226308,0.01447193022036703
0.09200000000000008,0.01465938223719732,0.01448939714589771
0.09299999999999997,0.0143413998070658,0.01450605345141768
0.09399999999999986,0.01410291298446716,0.01452142209615856
0.0950000000000002,0.01386442616186852,0.01453505740912001
0.09600000000000009,0.01330795690913836,0.01454642997358298
0.09699999999999998,0.01322846130160549,0.01455497073702072
0.09799999999999986,0.01283098326394109,0.01456030263625431
0.0990000000000002,0.01092308868315198,0.01456127912418386
0.1000000000000001,0.01171804475848077,0.01455652728186227
0.101,0.01235400961874381,0.01454655539677185
0.1019999999999999,0.01354644373173701,0.01453325777483984
0.1030000000000002,0.01410291298446716,0.01451857239006969
0.1040000000000001,0.01537484270499324,0.01450432244081454
0.105,0.01632878999538779,0.01449244795095755
0.1059999999999999,0.01609030317278915,0.01448423453016412
0.1070000000000002,0.01529534709746036,0.01447932396207607
0.1080000000000001,0.0147388778447302,0.01447638483342295
0.109,0.01457988662966444,0.01447431472530807
0.1099999999999999,0.01418240859200004,0.01447245658129548
0.1110000000000002,0.01402341737693428,0.01447026879839192
0.1120000000000001,0.01378493055433564,0.01446731926742587
0.113,0.01330795690913836,0.01446312747526783
0.1139999999999999,0.01322846130160549,0.01445716835720686
0.1150000000000002,0.01227451401121093,0.01444879995623984
0.1160000000000001,0.0108435930756191,0.01443654930787053
0.117,0.01179754036601365,0.01441930628630673
0.1179999999999999,0.01291047887147397,0.01439816684225959
0.1190000000000002,0.01370543494680276,0.01437530864606072
0.1200000000000001,0.01450039102213156,0.01435255256667381
0.121,0.0159313119577234,0.01433176103257943
0.1219999999999999,0.01616979878032204,0.01431471788280263
0.1230000000000002,0.01569282513512476,0.01430191299772818
0.1240000000000001,0.01529534709746036,0.01429258174632824
0.125,0.01465938223719732,0.01428561895960986
0.1259999999999999,0.01450039102213156,0.01428001992680288
0.1269999999999998,0.01418240859200004,0.01427510436510519
0.1280000000000001,0.01402341737693428,0.01427038399531919
0.129,0.01362593933926988,0.01426536172944389
0.1299999999999999,0.01330795690913836,0.01425945711061618
0.1309999999999998,0.01298997447900685,0.01425208852028719
0.1320000000000001,0.01163854915094789,0.01424225611449807
0.133,0.01132056672081638,0.01422853105663153
0.1339999999999999,0.01203602718861229,0.01421056712125917
0.1349999999999998,0.01322846130160549,0.01418975818262712
0.1360000000000001,0.01386442616186852,0.01416810350101144
0.137,0.01481837345226308,0.01414733072059505
0.1379999999999999,0.01648778121045355,0.01412944133673443
0.1389999999999998,0.01616979878032204,0.01411619598081615
0.1400000000000001,0.01561332952759188,0.01410756672641813
0.141,0.01489786905979596,0.01410226376666614
0.1419999999999999,0.01457988662966444,0.01409899304103603
0.1429999999999998,0.0143413998070658,0.01409687721591842
0.1440000000000001,0.01410291298446716,0.01409535606689437
0.145,0.01386442616186852,0.01409394020080454
0.1459999999999999,0.01338745251667125,0.01409205561031367
0.1469999999999998,0.01322846130160549,0.01408908792175966
0.1480000000000001,0.01275148765640821,0.01408450008394621
0.149,0.01100258429068486,0.01407703023896136
0.1499999999999999,0.01171804475848077,0.01406530839256794
0.1509999999999998,0.01243350522627669,0.01404980473265849
0.1520000000000001,0.01354644373173701,0.01403233700001847
0.153,0.01402341737693428,0.01401469259280738
0.1539999999999999,0.01529534709746036,0.01399851291802456
0.1549999999999998,0.01624929438785491,0.01398564129934037
0.1560000000000001,0.01601080756525627,0.01397730874384951
0.157,0.01529534709746036,0.01397314208384383
0.1579999999999999,0.0147388778447302,0.01397183223187852
0.1589999999999998,0.01457988662966444,0.01397225802565196
0.1600000000000001,0.01418240859200004,0.01397370512052913
0.161,0.01402341737693428,0.01397557654818662
0.1619999999999999,0.01378493055433564,0.01397738674640555
0.1629999999999998,0.01330795690913836,0.01397860364768842
0.1640000000000001,0.01322846130160549,0.01397865251522386
0.165,0.01235400961874381,0.01397688160560406
0.1659999999999999,0.0108435930756191,0.01397180763304192
0.1669999999999998,0.01179754036601365,0.01396223362283316
0.1680000000000001,0.01291047887147397,0.01394917299737915
0.169,0.01362593933926988,0.01393472511539843
0.1699999999999999,0.01442089541459868,0.01392059862281436
0.1709999999999998,0.01577232074265764,0.01390855010565152
0.1720000000000002,0.01616979878032204,0.01390033980183422
0.173,0.01577232074265764,0.01389658733866594
0.1739999999999999,0.0151363558823946,0.01389653548261924
0.1749999999999998,0.01457988662966444,0.01389889546745449
0.1760000000000002,0.01450039102213156,0.0139026421169599
0.177,0.01418240859200004,0.01390718994649362
0.1779999999999999,0.0139439217694014,0.01391202543820747
0.1789999999999998,0.01354644373173701,0.01391655157296145
0.1800000000000002,0.01322846130160549,0.01392013205476605
0.181,0.01291047887147397,0.01392217095305511
0.1819999999999999,0.01163854915094789,0.01392169315002432
0.1829999999999998,0.0112410711132835,0.01391729313812416
0.1840000000000002,0.01211552279614517,0.01390864666392797
0.1850000000000001,0.01322846130160549,0.01389720627925695
0.1859999999999999,0.01378493055433564,0.01388491220132041
0.1869999999999998,0.0147388778447302,0.01387336057924507
0.1880000000000002,0.01632878999538779,0.01386446767047123
0.1890000000000001,0.01616979878032204,0.01385999050820561
0.1899999999999999,0.01561332952759188,0.01386001228998371
0.1909999999999998,0.01497736466732884,0.01386334782352818
0.1920000000000002,0.01457988662966444,0.01386872530293265
0.1930000000000001,0.01450039102213156,0.01387528828211374
0.194,0.01418240859200004,0.01388253412240836
0.1949999999999998,0.01386442616186852,0.01388991329096184
0.1960000000000002,0.01338745251667125,0.0138967191863342
0.1970000000000001,0.01330795690913836,0.01390232714262195
0.198,0.01283098326394109,0.01390626670465881
0.1989999999999998,0.01108207989821773,0.01390730064505999
0.2000000000000002,0.01171804475848077,0.01390400610792498
0.2010000000000001,0.01235400961874381,0.01389672772404278
0.202,0.01362593933926988,0.01388724171662232
0.2029999999999998,0.01410291298446716,0.01387744903775747
0.2040000000000002,0.01529534709746036,0.01386902197144937
0.2050000000000001,0.01632878999538779,0.01386375699213982
0.206,0.01609030317278915,0.01386291742068049
0.2069999999999999,0.01545433831252612,0.01386619868498129
0.2080000000000002,0.01481837345226308,0.01387231820045398
0.2090000000000001,0.01465938223719732,0.01388010369233327
0.21,0.01426190419953292,0.01388879293395859
0.2109999999999999,0.01410291298446716,0.01389778222373051
0.2120000000000002,0.01378493055433564,0.01390654188949902
0.2130000000000001,0.01330795690913836,0.01391446072639985
0.214,0.01338745251667125,0.01392100419649349
0.2149999999999999,0.01259249644134245,0.0139257108058817
0.2160000000000002,0.01092308868315198,0.01392716195553215
0.2170000000000001,0.01187703597354653,0.01392403123451231
0.218,0.01291047887147397,0.01391721062870601
0.2189999999999999,0.01370543494680276,0.0139087618525212
0.2200000000000002,0.01442089541459868,0.01390039667199662
0.2210000000000001,0.01577232074265764,0.01389383703672922
0.222,0.01624929438785491,0.01389084919067957
0.2229999999999999,0.01585181635019051,0.01389213495789163
0.2240000000000002,0.01529534709746036,0.01389701467337556
0.2250000000000001,0.01465938223719732,0.01390423462081339
0.226,0.01450039102213156,0.01391268861974509
0.2269999999999999,0.01418240859200004,0.01392167735924847
0.2280000000000002,0.01402341737693428,0.01393069496957109
0.2290000000000001,0.01362593933926988,0.01393922815626928
0.23,0.01322846130160549,0.01394664356484025
0.2309999999999999,0.01306947008653973,0.01395234835728994
0.2320000000000002,0.01171804475848077,0.01395544668929343
0.2330000000000001,0.0112410711132835,0.01395449362762668
0.234,0.01211552279614517,0.01394905208444596
0.2349999999999999,0.01314896569407261,0.0139405070998133
0.2360000000000002,0.01386442616186852,0.01393081210714273
0.2370000000000001,0.0147388778447302,0.0139216522827615
0.238,0.01632878999538779,0.01391495186844516
0.2389999999999999,0.01616979878032204,0.0139124377568039
0.2400000000000002,0.01569282513512476,0.01391424131501931
0.2410000000000001,0.01497736466732884,0.01391922294846632
0.242,0.0147388778447302,0.01392615394550493
0.2429999999999999,0.01450039102213156,0.01393421852017258
0.2440000000000002,0.01418240859200004,0.01394283826214282
0.2450000000000001,0.0139439217694014,0.01395143072501489
0.246,0.01346694812420413,0.01395937276281464
0.2469999999999999,0.01322846130160549,0.0139660041884234
0.2480000000000002,0.01283098326394109,0.01397074534853632
0.2490000000000001,0.01108207989821773,0.01397237092629406
0.25,0.01163854915094789,0.01396946965632135
0.2509999999999999,0.01227451401121093,0.01396232139225284
0.2519999999999998,0.01346694812420413,0.01395264200876586
0.2530000000000001,0.01402341737693428,0.01394231440760527
0.254,0.01521585148992748,0.01393307061454496
0.2549999999999999,0.01632878999538779,0.01392680178738632
0.2559999999999998,0.01609030317278915,0.01392486055105205
0.2570000000000001,0.01537484270499324,0.01392695036843301
0.258,0.0147388778447302,0.01393172032992967
0.2589999999999999,0.01465938223719732,0.01393801032329153
0.2599999999999998,0.01426190419953292,0.01394514587151626
0.2610000000000001,0.01410291298446716,0.01395256779440025
0.262,0.01386442616186852,0.01395978826959281
0.2629999999999999,0.01322846130160549,0.01396619732979952
0.2639999999999998,0.01330795690913836,0.01397114747604302
0.2650000000000001,0.01243350522627669,0.01397407125806936
0.266,0.01076409746808622,0.01397348892589755
0.2669999999999999,0.01179754036601365,0.01396809314753195
0.2679999999999998,0.01291047887147397,0.01395890834212152
0.2690000000000001,0.01370543494680276,0.01394812082228082
0.27,0.0143413998070658,0.01393744528622717
0.2709999999999999,0.01577232074265764,0.0139285683613005
0.2719999999999998,0.01624929438785491,0.01392329916770433
0.2730000000000001,0.01585181635019051,0.01392237973888795
0.274,0.01521585148992748,0.01392509199219951
0.2749999999999999,0.01465938223719732,0.01393014604936793
0.2759999999999998,0.01450039102213156,0.01393647780108665
0.2770000000000001,0.01418240859200004,0.01394342737479933
0.278,0.01402341737693428,0.01395048776796102
0.2789999999999999,0.01370543494680276,0.01395718248763283
0.2799999999999998,0.01322846130160549,0.01396291252364066
0.2810000000000001,0.01306947008653973,0.01396704096343065
0.282,0.01179754036601365,0.01396866837266122
0.2829999999999999,0.01132056672081638,0.01396642228880421
0.2839999999999998,0.01203602718861229,0.01395981929566199
0.2850000000000001,0.01306947008653973,0.0139500865931173
0.286,0.01378493055433564,0.01393910543382478
0.2869999999999999,0.01465938223719732,0.0139285694203729
0.2879999999999998,0.01624929438785491,0.01392041088245038
0.2890000000000001,0.01609030317278915,0.01391636446726019
0.29,0.015533833920059,0.01391653094617011
0.2909999999999999,0.01489786905979596,0.0139197421831489
0.2919999999999998,0.01450039102213156,0.01392474290967959
0.2930000000000001,0.0143413998070658,0.01393065467556401
0.294,0.01410291298446716,0.01393695469647536
0.2949999999999999,0.01386442616186852,0.01394318914561911
0.2959999999999998,0.01346694812420413,0.01394881775378677
0.2970000000000002,0.01322846130160549,0.01395325810343599
0.298,0.01275148765640821,0.01395592731942848
0.2989999999999999,0.01108207989821773,0.01395555880791772
0.2999999999999998,0.01163854915094789,0.01395077842364091
0.3010000000000002,0.01219501840367805,0.01394186264863921
0.302,0.01338745251667125,0.01393044793187467
0.3029999999999999,0.0139439217694014,0.01391838052303117
0.3039999999999998,0.0151363558823946,0.01390739604774758
0.3050000000000002,0.01640828560292067,0.01389946509212477
0.306,0.01601080756525627,0.01389601474616061
0.3069999999999999,0.01537484270499324,0.01389670406552846
0.3079999999999998,0.0147388778447302,0.01390017823889282
0.3090000000000002,0.01465938223719732,0.01390531131079906
0.3100000000000001,0.01426190419953292,0.01391142260318426
0.3109999999999999,0.01402341737693428,0.0139179088342619
0.3119999999999998,0.01378493055433564,0.01392420256052298
0.3130000000000002,0.01314896569407261,0.01392965702346659
0.3140000000000001,0.01322846130160549,0.01393362823798718
0.3149999999999999,0.01243350522627669,0.01393559012378632
0.3159999999999998,0.01068460186055334,0.01393410176144749
0.3170000000000002,0.01171804475848077,0.01392781614483438
0.3180000000000001,0.01275148765640821,0.01391768236956887
0.319,0.01354644373173701,0.01390581610207549
0.3199999999999998,0.0143413998070658,0.01389397999080367
0.3210000000000002,0.01561332952759188,0.0138839438868045
0.3220000000000001,0.01616979878032204,0.01387748102107038
0.323,0.01585181635019051,0.01387537582342177
0.3239999999999998,0.01521585148992748,0.01387702606835784
0.3250000000000002,0.01465938223719732,0.01388117443275436
0.3260000000000001,0.01457988662966444,0.01388678709070882
0.327,0.01410291298446716,0.0138931942385939
0.3279999999999998,0.0139439217694014,0.01389976513920742
0.3290000000000002,0.01362593933926988,0.01390594498378047
0.3300000000000001,0.01322846130160549,0.01391117530773268
0.331,0.01306947008653973,0.01391489528069417
0.3319999999999999,0.01171804475848077,0.01391620072086361
0.3330000000000002,0.01116157550575061,0.01391360047308858
0.3340000000000001,0.01203602718861229,0.01390657572717514
0.335,0.01306947008653973,0.01389647265279995
0.3359999999999999,0.01378493055433564,0.01388524614272712
0.3370000000000002,0.01457988662966444,0.01387454467091808
0.3380000000000001,0.01616979878032204,0.01386621999768374
0.339,0.01609030317278915,0.0138620071291103
0.3399999999999999,0.01561332952759188,0.0138621212416516
0.3410000000000002,0.01489786905979596,0.01386546343130053
0.3420000000000001,0.01457988662966444,0.01387076707084048
